Text,Author ID,Tweet ID,Female User
@angharad___ You love having a rough bird you bint so shut your head,184541003,759884899436277761,Y
@4LittleDucks Ha! I'd make you one         ye daft bint ;),20962402,686873114601484288,Y
@missgemcollins no love we knew you wasn't pregnant         silly old bint,351846732,690653012977717248,Y
"@jwsal I called you ""bint""         you bigoted ass troglodyte. Maybe if you spent half as much time reading as you do crying         you'd see that.",2901752939,705788720989884416,N
@westhamster2 @KTHopkins  ya daft bint         not a child at 15 are you even serious wtf,704227687016095744,706112902923755525,N
@nicolaaahearts HOW DO U KNO I DONT MEAN U BINT???? fight me. ill fight u. ill fight everyone. ill fight myself,716028372443377664,741276550973280256,Y
@SaSentinels That's a Crusader you dumb bint         and I'll just whatever scale I want.,723057444813832192,745205720455483392,N/A
@_Kendalljones_ sick sick sick person hope karma comes a knocking you cruel bint,2451051172,748272511650004992,Y
@fionaunwin @GowTolson @jimmydolittle1 @CNewton37 of course they do you silly bint,2629217704,778638752520531968,S
"@emilyhartridge 

Get a job you lazy bint.",2269501130,779018433501470720,Y
@FeistyPrincess4 @MirrorPolitics @jwturner97 Who murdered Jo Cox again? The right are far         far worse. Get in the bin you silly bint.,733659283594878976,828729731335987201,S
@SarahKSilverman You're one batty bint. When did you graduate from Kindergarten? Lucky no-one gives a fuck about your opinion.,40641094,831380976072732676,Y
@sorrellj_ @JackBennett10 shut up you nosey bint,1033577611,727612028643385344,Y
@DailyCaller @Not_RSMcCain Tell that to the guys who survived Pearl Harbor         you ignporant bint.,2363325966,719625813776318465,N
@Sootypus what does that say you stupid bint! https://t.co/TE71q7Xay7,295242891,725947548448395266,D
@WifeofMrH8 You definitely did. Or was that some other Bint who likes revealing her tits and arse on here?,853648609,853903289636794368,N/A
@SamTitt You making your way back to the shore alone as a result of being a cocky bint x https://t.co/sYI6JjtkPS,325746363,875267367143710720,N
@Marshall5Sharon Silly bint! You tried to warn her         she thought she knew better &amp; found out the error of her ways the hard way😂😂 patronising lass might learn,299109747,875810734999044096,Y
@bbuk Like         Like         Like         the boys are really sensitive!!! (trying to get in your knickers you daft bint!) Yawn...dull! Isabelle is by far funnier! https://t.co/N2gyx6EAH3,215252690,878628535572844544,N