charlottemary06,1018986319786184704,2020-10-30T23:49:53.000Z
Jen2Dpeterson18,874100185013551104,2020-09-29T20:44:05.000Z
Agrimonious,382254185,2020-08-29T20:21:53.000Z
AarielSays,1197206979867029504,2020-09-29T20:03:47.000Z
cafreeland,203132018,2020-12-30T14:02:32.000Z
breanaharrell,196838922,2020-07-29T23:30:38.000Z
JoJoFromJerz,818893114979061761,2020-09-09T22:54:21.000Z
Whatapityonyou,3309013458,2020-06-28T18:16:34.000Z
laurahollis61,134250956,2020-08-29T18:13:22.000Z
Alywill59,874562520379305984,2020-10-02T06:39:39.000Z
marie197408,913081381,2020-09-28T20:56:33.000Z
angelneptustar,19644086,2020-10-21T20:29:08.000Z
BhartiS58676754,1247397313703579648,2020-06-29T06:34:53.000Z
JuliaRose_33,423184716,2020-11-29T06:19:58.000Z
TahmeenaBhat,714385611679883264,2020-12-13T08:23:36.000Z
SexCounseling,204444440,2020-12-24T03:26:48.000Z
ColetteReneee,875014839986528256,2020-12-30T23:25:52.000Z
ZigmanSara,1113354665524174848,2020-06-07T13:11:12.000Z
Zeitkammer1312,1015337531876020226,2020-06-29T17:06:28.000Z
DrAnaida,1311376186514104320,2020-12-24T14:36:30.000Z
theNOELEshow,102687323,2020-12-30T22:35:52.000Z
Jrw_photography,871835882013306880,2020-06-28T00:55:13.000Z
katchadder,1334498973676163072,2020-09-28T00:30:12.000Z
missalicegrant,1648242817,2020-06-06T20:47:25.000Z
Johanna_Ann,24161758,2020-10-30T00:07:00.000Z
CaseyJohnson_85,1221142580169265152,2020-11-28T23:18:54.000Z
Fiona_Onasanya,42977873,2020-06-16T06:18:35.000Z
sixthcousin,881008079898374146,2020-09-29T22:14:46.000Z
Lettsdance101,2392671786,2020-12-30T22:12:09.000Z
kittywhisperer7,930348438,2020-09-22T18:20:04.000Z
artistfuly,3396693674,2020-09-29T10:53:07.000Z
nellygivesnofu1,1291829149330440199,2020-06-29T17:07:18.000Z
YoungKookiees,744021012,2020-06-29T18:07:50.000Z
em_parrker,2959203223,2020-06-29T23:55:41.000Z
CathLAndrews,84206769,2020-09-28T21:45:18.000Z
katebattrick,103896166,2020-10-14T23:05:00.000Z
alyssa_schoener,2297595813,2020-06-29T15:38:32.000Z
realamberheard,807003567605227520,2020-07-29T21:01:08.000Z
Tabitha59803043,1246893812733091840,2020-07-18T01:33:05.000Z
NatalieJHarp,772934961766608897,2020-06-28T20:52:06.000Z
ShineLily_,1217229599370772481,2020-09-07T10:43:15.000Z
chelseahandler,19877186,2020-06-29T23:59:06.000Z
Jacquel26877237,1219692555224387587,2020-05-02T00:04:58.000Z
lyd_patrick,540887164,2020-06-29T16:49:22.000Z
saucissonsec,21584831,2020-06-29T23:52:25.000Z
_JeannaMarie,77873035,2020-12-23T15:41:04.000Z
CarrotRebecca,1150413462402686976,2020-12-12T17:28:34.000Z
samanthamarika1,1006474869570093056,2021-01-08T15:01:19.000Z
thetoplessraver,1185377361958703105,2020-06-29T21:29:19.000Z
denise_cottec,1221572716203069442,2020-12-18T01:14:53.000Z
camcamdamn,839816211546451968,2020-10-23T21:04:28.000Z
Fiona74127230,1240443390539382784,2021-01-09T10:52:16.000Z
Kimberl1525,1179850728636141568,2020-09-29T14:05:53.000Z
MarieAnnUK,1657761703,2020-07-25T14:36:31.000Z
therealsirips,1289221980999290880,2020-12-20T04:16:52.000Z
urmomsuzie,1087529489968578561,2020-12-30T21:51:00.000Z
Aliciana__,171293490,2020-06-29T23:48:46.000Z
DELETETRUMP9,1173083481536159744,2020-10-29T21:54:51.000Z
JuliaTobiasUK,1110893469655056385,2020-05-26T15:48:44.000Z
BrittanyVenti,3177515983,2020-09-29T04:19:50.000Z
Jeanniebeany,31303963,2020-06-29T22:21:52.000Z
sparkletitty666,1267500407925981184,2020-11-29T23:53:06.000Z
StygianSis,1308063235707371521,2021-01-07T23:39:24.000Z
lataliaa1,1094260940,2020-06-29T23:39:02.000Z
SilviaNewman4,735681727,2020-08-16T13:25:38.000Z
streamcIear,953387381348098050,2020-06-29T23:58:05.000Z
charliemcgoughx,1142961121,2020-11-10T15:52:03.000Z
MrsBennet406,946226570041081856,2020-06-16T02:52:53.000Z
RealKaylaJames,1041790931563937794,2021-01-09T02:28:54.000Z
Lrihendry,1348043689763905536,2020-06-27T14:12:40.000Z
_MsNefarious,879820943648010240,2020-09-27T01:00:12.000Z
bindis81,1206138697982234629,2020-06-23T08:58:06.000Z
RachellM72,1235238300509757441,2020-12-09T22:16:46.000Z
dydroit,957800233349640194,2020-06-27T13:23:20.000Z
georgiecrozier,305439331,2020-09-29T14:11:16.000Z
RealMahBandz,1201233599623782400,2020-06-29T14:11:37.000Z
mercedesschlapp,42670638,2020-10-30T22:35:18.000Z
needyhostage,1119599138650324992,2020-06-29T16:50:41.000Z
TheRightMelissa,762389795037294592,2020-06-28T14:36:02.000Z
bogdanoffelaine,1249656072396247040,2020-06-27T17:30:40.000Z
LindaSuhler,347627434,2020-06-29T01:43:28.000Z
natalieee75,867155441024774144,2020-11-28T17:53:55.000Z
pankhuripathak,2895357769,2020-08-29T19:41:22.000Z
Mandoline_Blue,967810396483674112,2020-12-19T17:10:22.000Z
AnaBannannaa,439687435,2020-06-29T23:55:24.000Z
nayelly_nails,2677620352,2020-12-08T14:08:04.000Z
AZLisa1Cor13,602968880,2020-05-23T11:09:10.000Z
nsland1,370407547,2020-12-30T23:43:04.000Z
futrii,15110581,2020-12-30T21:02:32.000Z
BunnyAyu,794394294,2020-06-29T21:56:07.000Z
TiaACharles,932291850144186369,2020-07-18T15:32:30.000Z
chyneelo,1312650354102882305,2020-12-18T09:57:30.000Z
ohhayitsjamie,554518561,2020-10-29T19:40:14.000Z
claudiamconwayy,1264890456070139904,2020-10-05T11:38:35.000Z
realhimanshi,851330647045963776,2020-11-29T18:16:49.000Z
Leslieoo7,2420848054,2020-07-29T21:36:23.000Z
AmyAThatcher,740244738738126849,2020-12-29T19:28:37.000Z
KatyJayne101,1192861100804575234,2020-09-27T15:39:28.000Z
annepanktz,29053846,2020-12-07T01:02:23.000Z
pokimanelol,2244953047,2020-12-09T04:12:40.000Z
hotgirlcyn,321051049,2020-12-24T20:45:20.000Z
Texmexchica,1733099138,2020-06-27T18:00:22.000Z
LaurenWhitticom,620518743,2020-12-14T02:58:27.000Z
ejeancarroll,15740776,2020-09-29T16:00:11.000Z
marissa29137212,1333042489457045506,2020-11-29T21:50:54.000Z
SyntheticTeapot,971116700929323008,2020-06-27T16:50:23.000Z
thejodiburton,1175141802330021888,2020-12-09T07:52:00.000Z
Astharteea,59381788,2020-06-07T23:06:01.000Z
Francesgracella,1432374242,2020-12-09T22:57:52.000Z
suncatcher1936,157380574,2020-06-29T06:49:24.000Z
nahsam_,945743337260187648,2020-10-16T12:15:14.000Z
MaryFabulous3,922794040097206272,2020-07-28T14:30:47.000Z
SixBrownChicks,243328891,2020-12-30T22:40:57.000Z
VictoriaJackson,495253331,2020-12-08T10:58:38.000Z
kirstiealley,36528126,2020-10-30T22:30:41.000Z
___KillaKenn,1277697043188920320,2020-06-29T20:46:51.000Z
SyleeG,1407505878086033412,2020-11-29T19:46:21.000Z
maryannemarsh,23233038,2021-01-07T23:33:05.000Z
annamaria1word,275155106,2020-06-29T15:19:39.000Z
LouEng19,1178632778801385472,2020-06-09T11:41:18.000Z
lizzylemondrop,1056123570,2020-09-29T22:54:38.000Z
Jennpaulkelly,561320357,2020-12-09T04:18:02.000Z
erinisaway,738208631456301056,2020-09-29T22:10:32.000Z
lindyli,270132611,2020-07-29T05:00:40.000Z
MonicaRicci,14430088,2020-12-30T21:49:06.000Z
QueenSorviaV,1153021479048679424,2020-10-29T18:54:57.000Z
JuliaHB1,459390022,2020-12-09T12:22:41.000Z
Ema_Bishop,950733811,2020-10-07T11:57:18.000Z
SusanHilgenfeld,700272708,2020-10-30T23:13:51.000Z
HeathertheHeron,591229622,2020-08-25T20:57:15.000Z
Ezinger44,19750998,2020-06-29T17:30:36.000Z
RichaSharma007,1344491088908668928,2020-09-29T14:42:00.000Z
carolejanehay,851155898370334720,2020-09-01T07:06:25.000Z
AnootIsCool,1023398149,2020-12-23T01:55:39.000Z
Emma_LoveArt,191539630,2020-12-24T09:30:26.000Z
ligudumashige,1357819494312398850,2020-12-30T22:14:41.000Z
BrendaPriddy,23818597,2020-11-28T15:11:12.000Z
LadyDeathbane,29921823,2020-06-29T23:52:50.000Z
pkicis,1131445295118716928,2020-11-25T01:25:59.000Z
bellausa17,898946995,2020-10-29T18:50:37.000Z
Puff83061278,1055566444732338177,2020-09-17T16:52:28.000Z
dionnewarwick,874896877,2020-12-30T22:52:29.000Z
Catchtricia,26766315,2020-09-13T23:51:52.000Z
tthestrangervon,613906548,2020-06-29T21:11:44.000Z
KaitMarieox,878087280321335298,2020-12-23T20:45:56.000Z
abboyabbo,959039169124339712,2020-06-29T18:45:45.000Z
dunamanent,59228109,2020-08-23T22:03:29.000Z
turtlducks,1463557224,2020-06-29T23:50:05.000Z
JennyF209,24622278,2020-12-30T22:38:21.000Z
_brittneytimon,1226720629254184966,2020-06-29T23:48:19.000Z
sophsls123,1060806220557312000,2020-10-02T19:15:44.000Z
Juliest101,875612784863531008,2020-12-18T20:09:54.000Z
funfettikitty,1282706234685173762,2020-06-28T03:18:34.000Z
so_overjoyed,237381807,2020-11-29T10:33:14.000Z
y_alibhai,1361454241,2020-10-05T18:18:19.000Z
LetitiaMontana,130229947,2020-07-07T08:01:11.000Z
bunbunroll,920306473405681665,2020-09-29T18:48:37.000Z
supergeetoo,4097334202,2020-08-01T16:28:33.000Z
Mycenia,18836491,2021-01-08T13:22:28.000Z
ayiticheriee,592145211,2020-08-29T20:53:39.000Z
kneshaa_,235767421,2020-11-28T01:29:36.000Z
JustKelseey,200641308,2020-06-29T16:05:33.000Z
ayebegorra,3599054178,2020-07-17T18:12:54.000Z
selenaelyse,95198652,2020-06-29T23:52:58.000Z
moldoestweet,4040312117,2020-06-07T18:13:29.000Z
blackgirlwatch2,1310462357663965185,2020-12-30T21:03:09.000Z
emilygr29,1192225090886406144,2020-06-29T23:37:42.000Z
natalie_parcell,382214567,2020-11-29T07:10:45.000Z
CandiceAiston,18337740,2020-12-20T19:07:15.000Z
Cindyleija4,887306930737356800,2020-12-30T19:50:32.000Z
the_resistor,1225147380284018688,2020-06-28T13:31:32.000Z
ovenlasagna,1265040922133385222,2020-06-29T19:11:53.000Z
nassolobeth,1256723624574300160,2020-12-15T08:38:10.000Z
Ok2BHuman,377254180,2020-12-09T04:18:28.000Z
MethiaLydiaN,816348689136500737,2020-06-29T19:58:15.000Z
divineferminine,149304796,2020-12-11T04:09:12.000Z
_casey_lea,796109973902200832,2020-08-15T11:06:46.000Z
kishalatreese,594839502,2020-07-29T22:27:28.000Z
m0rganaaaa,895590037756293120,2020-08-04T14:16:40.000Z
realkatiejow,230318947,2020-12-22T02:13:49.000Z
sophable,49421512,2020-05-24T08:33:26.000Z
f5anddie,1145075272598859779,2020-12-29T20:55:24.000Z
ellaella963,258652587,2020-10-14T21:23:16.000Z
MyGoddessPet,3101235637,2020-09-29T23:16:27.000Z
heyNikkiGirl,94734043,2020-11-19T14:14:34.000Z
fleekynu,4581229708,2020-06-29T23:12:15.000Z
PharmZay,995094470722052097,2020-12-22T22:26:10.000Z
honeyzuiice,1204312951512915968,2020-06-29T16:09:03.000Z
Ustoo123,873149091827638272,2020-08-29T21:18:56.000Z
Vicki_Toria06,848636419,2020-10-30T16:00:20.000Z
svtjw,863227341815914496,2020-06-29T23:49:03.000Z
iamkaylapears,1161966614381809664,2020-12-09T02:27:28.000Z
karen_eldon,1321579494386200576,2020-12-23T23:18:32.000Z
vixmcintyre,320391602,2020-09-29T19:08:26.000Z
Deborah69226987,1343715675999793153,2020-12-29T13:11:23.000Z
MissDominiChula,363341321,2020-10-30T23:02:21.000Z
khadijat_ibrahi,1149261044453380096,2020-10-21T17:36:52.000Z
christine_swint,15239674,2020-07-29T06:25:44.000Z
maria_leah385,1254546211161268224,2020-06-29T23:59:18.000Z
4Hunniidd,2753933046,2020-09-29T23:47:00.000Z
Maggie_Klaus,234865212,2020-12-29T19:31:12.000Z
KMARAJ_,1017232156077092864,2020-06-29T17:49:29.000Z
vampmotel,879902096576966656,2020-07-29T14:38:13.000Z
rollyworld89,3899408182,2020-06-29T23:56:29.000Z
wintheraespa,2893350202,2020-12-22T17:38:20.000Z
OliviaC14337638,1194302876430032896,2020-12-09T21:34:42.000Z
wrdencmndr,1265420424277397504,2020-08-29T23:38:29.000Z
littledeekay,477012156,2020-06-27T20:11:28.000Z
erinlouisehunt,22499036,2020-06-16T23:15:21.000Z
haikyubts,969950939053355008,2020-06-29T16:03:23.000Z
Tigerlilly72,29913551,2020-07-29T06:25:00.000Z
chuckwoolery,462104542,2020-06-29T23:15:03.000Z
girlyfanaticOT7,1090314752700661760,2020-06-29T23:58:33.000Z
MarcieVJimenez,830500567222882304,2020-10-30T01:23:00.000Z
uhkneeaa,1128056526973952002,2020-11-27T05:15:15.000Z
ImKileyDavis,2151944035,2020-10-30T23:03:41.000Z
Kokomothegreat,881336677138128897,2020-06-29T19:58:50.000Z
sarahlouice,1276634077488132097,2020-12-30T23:47:42.000Z
elizaxb_,238367116,2020-06-03T11:40:53.000Z
dharna_ahuja,745508012,2020-06-29T10:32:14.000Z
McAlison22,260279276,2020-10-30T22:41:22.000Z
slizzzg,3742201033,2020-06-29T20:22:29.000Z
feliciasonmez,137466464,2020-07-29T13:24:59.000Z
ShantiseAshanTi,3299825311,2020-12-21T09:46:28.000Z
nurse365,17521339,2020-07-29T17:52:41.000Z
Hmschlmom2,25122746,2020-09-29T05:39:58.000Z
Slickaroon,2841887430,2020-09-29T23:09:49.000Z
verymessybitch,1034506225583628288,2020-07-28T18:24:20.000Z
tonilife,1229214055044460549,2020-11-29T05:31:26.000Z
jfoster2019,48507794,2020-07-21T12:30:08.000Z
errjustsaying,2424097747,2020-12-30T23:41:01.000Z
NicoleSchinelli,479154447,2020-06-29T20:37:20.000Z
moxie_mo24,3294238980,2020-06-29T15:38:17.000Z
amzkay,162405404,2020-06-12T13:53:10.000Z
liddell_olivia,1131252377405788161,2020-07-29T23:48:37.000Z
Zizipho_Majama,1004253482055061504,2020-10-30T10:39:31.000Z
diamondlife_3,45416718,2020-05-04T14:05:40.000Z
eunhaswife,1302204108775075841,2020-12-30T20:57:36.000Z
Sarangichamoli,1197584048971010048,2020-10-29T19:20:35.000Z
MaleehaHashmey,2987073216,2020-06-27T21:02:08.000Z
lemurian39,2724465301,2020-12-07T08:55:02.000Z
LindaNEK,231391405,2020-08-29T22:02:26.000Z
KathrynDennis,139556111,2020-10-30T23:41:39.000Z
NicoliarSturge1,1303661429174743040,2020-12-09T14:23:50.000Z
DanaHoule,26063171,2020-11-26T07:35:41.000Z
biannagolodryga,14135350,2020-06-27T21:57:08.000Z
Kica333,176609398,2020-12-08T12:56:56.000Z
angelhotch,1005243258145005568,2020-08-29T23:54:41.000Z
RachBoogaloo,1343257274215788546,2021-01-09T01:17:56.000Z
OfIceAndShadow,1032071153471434752,2020-06-29T07:05:52.000Z
DebbieH59572943,3592269977,2020-06-29T23:19:47.000Z
MT4tk,905947321158041601,2020-06-23T18:42:26.000Z
slaykurdae_,764932580445741056,2020-06-29T23:13:27.000Z
kjskth95,1073604722001612802,2020-06-29T20:28:08.000Z
AbigailShrier,429415553,2021-01-09T04:54:02.000Z
fckpaige_,622619825,2020-06-29T17:51:03.000Z
santana_nadiaaa,459819399,2020-12-29T01:20:37.000Z
emysofiaa,877734519167647749,2020-06-29T23:48:08.000Z
SamLeterna,406303986,2020-06-27T14:13:47.000Z
britni_fletcher,1243196217624014850,2020-06-29T23:41:04.000Z
BethD1602,2688387909,2020-12-19T20:12:50.000Z
priyankadeo,65839963,2020-09-29T23:34:28.000Z
HeatherPreston1,1091449821439905792,2020-10-22T19:30:18.000Z
kimbreanna_,551413906,2020-06-29T23:37:09.000Z
KelliLynnSage,158644376,2020-12-03T14:17:55.000Z
LaraCrabb,291760084,2020-08-06T10:03:47.000Z
bunnie_mommy,965389696628117505,2020-06-29T23:29:21.000Z
theIadyonfire,1433369802702209025,2020-06-28T16:42:07.000Z
