SarcasmStardust,279673090,2021-06-26T19:37:23.000Z
eilujpham,252349740,2021-06-25T04:16:14.000Z
whimsywords,1270935317990825984,2021-06-22T20:03:43.000Z
susanellise,252367686,2021-06-12T00:56:35.000Z
cosmicdahlia,1161777403427020801,2021-06-07T18:34:41.000Z
thestinkmarket,998667035637899264,2021-07-27T11:35:21.000Z
sarahwoodwriter,191546705,2021-07-12T15:05:33.000Z
queenragdoll,1365661374546915330,2021-07-11T10:08:53.000Z
JuventinaHannah,857481074024239104,2021-07-10T18:19:36.000Z
Nuggetsnchicken,152888773,2021-08-27T23:59:51.000Z
BreesAnna,702798054357909504,2021-08-26T14:54:02.000Z
realjuliasong,1077341756838957057,2021-08-18T00:02:11.000Z
Jessicam6946,945693405694357504,2021-08-15T18:46:07.000Z
jcbrhodesia,1029177262372020224,2021-05-19T01:23:32.000Z
naomyduhh,822809958722994176,2021-05-17T03:44:17.000Z
KaitlynNoel31,1052231282380496899,2021-05-10T16:18:55.000Z
_MayJailer_,53474130,2021-04-28T16:04:20.000Z
Florenc53514872,1379194686087303176,2021-04-20T18:19:53.000Z
Mslove777,227826296,2021-04-15T11:37:47.000Z
strwbrrymattel,1280948852175122437,2021-04-06T20:24:46.000Z
EmiliaCharles17,1337634269380874240,2021-04-05T19:57:14.000Z
sweeticarusbear,1422224640236130304,2021-08-29T17:45:02.000Z
borlah_m,834187452281712640,2021-08-29T14:43:51.000Z
AmeliaRR34,1426261147318198281,2021-08-29T10:12:01.000Z
chordoanchal,1239430226645377024,2021-08-29T06:18:09.000Z
thatsSoDESY,298783406,2021-08-28T02:09:25.000Z
anquierria,976900295409192962,2021-08-25T16:06:30.000Z
VeBo1991,1573472503,2021-08-25T08:44:54.000Z
notagaincara,1053345480149753856,2021-08-24T19:30:42.000Z
quarktasche55,401493880,2021-08-24T13:04:37.000Z
inurgfsbed,1259958108891348993,2021-08-24T01:10:27.000Z
92K0RE,1107424167157207046,2021-08-23T16:29:57.000Z
kaiordiie,1136436092549312513,2021-08-21T22:02:51.000Z
gracie47621231,1392968885574504453,2021-08-20T22:27:27.000Z
tanishajasmine6,915269622911422465,2021-07-29T16:00:43.000Z
LexiGuitron,2988691404,2021-07-27T23:25:33.000Z
heyitspanji,1312623494727835650,2021-06-28T12:53:01.000Z
anakinstarlight,1161747382406713349,2021-06-24T05:41:42.000Z
mariana057,15284799,2021-06-23T11:26:12.000Z
KillaKelsee,951912814180028418,2021-06-29T18:28:22.000Z
astronglady,1053271752,2021-06-29T17:34:11.000Z
Sar76rest,918174770511929346,2021-06-28T20:37:36.000Z
MeganJearum,720911883973369856,2021-06-28T13:42:27.000Z
jodikyman,16973217,2021-06-27T20:35:24.000Z
SonomaLass,15634495,2021-06-27T14:10:50.000Z
JaneDryden4,1140898939308302337,2021-06-26T18:37:27.000Z
suesueesueee,221939330,2021-06-26T14:19:48.000Z
_celia_bedelia_,807968504,2021-07-29T14:15:54.000Z
cessna_diana,1374947970290835457,2021-07-28T20:21:34.000Z
BiancaOSantos,65132037,2021-08-29T21:54:57.000Z
sassytallblond,1320210348226564096,2021-08-29T07:08:30.000Z
BaileyCapozzoli,1225808032506011648,2021-08-28T04:28:22.000Z
MelisaC64216898,1323824396650381313,2021-08-28T03:42:31.000Z
Vanessa_Mexia,1362918512570761216,2021-08-27T18:00:59.000Z
