tweet_id	created_at	tweet_text	is_targeted_at_user	is_female_user	is_profile_public	username	username_to_whom_replied	user_id_to_whom_replied
1344325143389212672	2020-12-30T16:51:05.000Z	@esmeraldaa69 @spicyfoxlady No do one you skank	Y	Y	Y	@esmeraldaa69	@esmeraldaa69	1272288349471064070
1344282728443772929	2020-12-30T14:02:32.000Z	@cafreeland I hope you rot in hell you nazi skank!!	Y	Y	Y	@cafreeland	@cafreeland	203132018
1344115465082327041	2020-12-30T02:57:53.000Z	@askjillian @SidneyPowell1 You’ve got two underlying conditions one is you’re a hypocritical Hollywood has been looking for relevance and two you’re a dried up whiny liberal skank @askjillian	Y	Y	Y	@askjillian	@askjillian	33978449
1344026836829786112	2020-12-29T21:05:43.000Z	@JudgeJeanine Judge Jeanine you should ask Siri what the definition of skank is because that’s you two out of the four sayings! You’re a true blue Scally wag I wish you would disappear from the newscasting same.	Y	Y	Y	@JudgeJeanine	@JudgeJeanine	29458079
1344024241881161728	2020-12-29T20:55:24.000Z	@f5anddie You're a privileged skank	Y	Y	Y	@f5anddie	@f5anddie	1145075272598859779
1344015063154380802	2020-12-29T20:18:56.000Z	@JocelynBenson Hope you enjoy prison skank	Y	Y	Y	@JocelynBenson	@JocelynBenson	23228918
1344003049925169152	2020-12-29T19:31:12.000Z	@Maggie_Klaus You’re a Hillary supporter so your opinion is laughable. Shut your skank hole mouth. Backhand you	Y	Y	Y	@Maggie	@Maggie	234865212
1344002401229889536	2020-12-29T19:28:37.000Z	@AmyAThatcher You’re a lesbian so... you’re warped opinion means shit. You nasty skank	Y	Y	Y	@AmyAThatcher	@AmyAThatcher	740244738738126849
1343907467978272768	2020-12-29T13:11:23.000Z	@Deborah69226987 Lol Did you create this account just to troll me Debra? I'm honored. Watch those contractions and possessive plurals or you'll never get by in middle school you illiterate skank. ❤️❤️❤️	Y	Y	Y	@Deborah69226987	@Deborah69226987	1343715675999793153
1343782128668983297	2020-12-29T04:53:20.000Z	@NikkiHaley I thought you were up and coming great leader but you are nothing but a skank!	Y	Y	Y	@NikkiHaley	@NikkiHaley	1079776144524754944
1343747238993006592	2020-12-29T02:34:42.000Z	@ursula_whyte1 @Eminem Good you welfare skank. Good riddance	Y	Y	Y	@ursula	@ursula	1331203970757505026
1343728597870247938	2020-12-29T01:20:37.000Z	@santana_nadiaaa So you're a nasty skank and a bitch??	Y	Y	Y	@santana	@santana	459819399
1333166571364167680	2020-11-29T21:50:54.000Z	@marissa29137212 @IvankaTrump What kind of skank scam are you running?	Y	Y	Y	@marissa29137212	@marissa29137212	1333042489457045506
1332945074183831552	2020-11-29T07:10:45.000Z	@natalie_parcell ITS ABOUT DAMN TIME YOU SHOW THAT SKANK ASS OF YOURS AROUND WORK.	Y	Y	Y	@natalie	@natalie	382214567
1332932297155358720	2020-11-29T06:19:58.000Z	@JuliaRose_33 What a skank you are!  Ewe.	Y	Y	Y	@JuliaRose	@JuliaRose	423184716
1332878699679637507	2020-11-29T02:47:00.000Z	@JudgeJeanine fuck you skank america has been overthrown and your hawking you stupid book	Y	Y	Y	@JudgeJeanine	@JudgeJeanine	29458079
1332826328425525250	2020-11-28T23:18:54.000Z	@CaseyJohnson_85 @JennaEllisEsq And you're a skank	Y	Y	Y	@CaseyJohnson	@CaseyJohnson	1221142580169265152
1332791940828557312	2020-11-28T21:02:15.000Z	@KLoeffler No thanks you ugly skank.	Y	Y	Y	@KLoeffler	@KLoeffler	29495695
1332703596379422723	2020-11-28T15:11:12.000Z	@BrendaPriddy @AZGOP Shut up Brenda you stupid skank.	Y	Y	Y	@BrendaPriddy	@BrendaPriddy	23818597
1332496836150632452	2020-11-28T01:29:36.000Z	@kneshaa_ @PIONEERCRAZY_ Because I’ve been asking you for something for 3 years you skank. Don’t act brand new.	Y	Y	Y	@kneshaa	@kneshaa	235767421
1332314018212573187	2020-11-27T13:23:09.000Z	@JennaEllisEsq @realDonaldTrump You’re a skank - you sold your soul to the devil you lying POS. You deserve to get your law license revoked. You’ve been reported to the ABA for unbecoming conduct. https://t.co/0U5liqOodm	Y	Y	Y	@JennaEllisEsq	@JennaEllisEsq	778763106289758208
1322312918252343296	2020-10-30T23:02:21.000Z	@MissDominiChula I didn’t know that you skank. You didn’t tell me	Y	Y	Y	@MissDominiChula	@MissDominiChula	363341321
1322206714448420864	2020-10-30T16:00:20.000Z	@Vicki_Toria06 Literally says the skank who broke up with her fiance and left to spend Thanksgiving with another a few days later fucked around just to beg for the same fiance back the day you came home. I own my past how about you?	Y	Y	Y	@Vicki	@Vicki	848636419
1321902019985158145	2020-10-29T19:49:35.000Z	@sunandavashisht But are you gonna talk about trumps visits to his golf courses?  Of course not you hypocritical skank	Y	Y	Y	@sunandavashisht	@sunandavashisht	77509999
1321638187727507463	2020-10-29T02:21:13.000Z	@KellyannePolls Oh sit down &amp; STFU you mobbed-up skank.  How much of OUR money paid for that pathetic face make-over you had to have (psssssst it didn't make much of a difference noticeable but not by much)	Y	Y	Y	@KellyannePolls	@KellyannePolls	471672239
1321630561031520256	2020-10-29T01:50:55.000Z	@DrBiden Get your husband some help you disgusting skank!!	Y	Y	Y	@DrBiden	@DrBiden	821784477076750338
1311093043752325120	2020-09-29T23:58:35.000Z	@AubreyODay Dayum you’re a nasty skank.	Y	Y	Y	@AubreyODay	@AubreyODay	14817982
1311090130006888449	2020-09-29T23:47:00.000Z	@4Hunniidd LMAO bitch you’re a skank	Y	Y	Y	@4Hunniidd	@4Hunniidd	2753933046
1311078111447076864	2020-09-29T22:59:15.000Z	@EmmaKennedy @JoeBiden @realDonaldTrump You’re such a skank under the illusion of propriety	Y	Y	Y	@EmmaKennedy	@EmmaKennedy	23217907
1311015039025979398	2020-09-29T18:48:37.000Z	@bunbunroll are you sure... Skank	Y	Y	Y	@bunbunroll	@bunbunroll	920306473405681665
1310972653386240001	2020-09-29T16:00:11.000Z	@ejeancarroll skank do you know what that means oh you must you are one hope you pay soon for your greed and lies	Y	Y	Y	@ejeancarroll	@ejeancarroll	15740776
1310952634359205892	2020-09-29T14:40:39.000Z	@SarahHuckabee #Christian? OMG - What a hoot. Which Biblical character are you based upon? Lying Skank? Hypocritical Sycophant? You did turn lies and half-truths into Presidential barking noises... #GOP #GOPHypocrisy #GOPCorruptionOverCountry	Y	Y	Y	@SarahHuckabee	@SarahHuckabee	5509762
1310736158825963520	2020-09-29T00:20:27.000Z	@SaraGonzalesTX If Brad Parscale had been black you'd be justifying the tackle because he didn't comply with the officer who told him to get down.   Oh and it would have never gotten to that point because he was refusing to come out so they would have gone in and shot him.  So sit down skank.	Y	Y	Y	@SaraGonzalesTX	@SaraGonzalesTX	375852740
1310697116126203904	2020-09-28T21:45:18.000Z	@CathLAndrews You are a baphomet skank and your husband is an evil piece of shit.  Fuck you.	Y	Y	Y	@CathLAndrews	@CathLAndrews	84206769
1310616687327182850	2020-09-28T16:25:42.000Z	@VoteMarsha Shut up you skank. GOP is as corrupt as Trump.	Y	Y	Y	@VoteMarsha	@VoteMarsha	63150856
1310539539123855360	2020-09-28T11:19:09.000Z	@Alaina199x @thebestofnever7 @2nepazie @SincerelyTops @Oloni grow up stop being skank it is shaking and showing off your ass to randoms if that aint slutty then i feel sorry for anyone that gets involved with you	Y	Y	Y	@Alaina199x	@Alaina199x	1263545793979584514
1310376223713955842	2020-09-28T00:30:12.000Z	@katchadder You skank	Y	Y	Y	@katchadder	@katchadder	2528994385
1310233296698253314	2020-09-27T15:02:15.000Z	@FLOTUS @ConcordHospital Like you wrote this - skank	Y	Y	Y	@FLOTUS	@FLOTUS	818876014390603776
1310029130247921664	2020-09-27T01:30:58.000Z	@Ilhan This isn’t Somalia you skank! It’s called capitalism and everyone has a chance to join in the fun. We don’t just hand out participation ribbons like you.	Y	Y	Y	@Ilhan	@Ilhan	1082334352711790593
1310021389156380672	2020-09-27T01:00:12.000Z	@_MsNefarious you are a skank... and a horrible person.	Y	Y	Y	@	@	879820943648010240
