tweet_id	created_at	tweet_text	is_targeted_at_user	is_female_user	is_profile_public	username	username_to_whom_replied	user_id_to_whom_replied
1277753069288243200	2020-06-29T23:57:25.000Z	@NiaThang you’re just a picky cunt. no one is perfect whore	Y	Y	N		@NiaThang	4271655263
1277752630668918784	2020-06-29T23:55:41.000Z	@em_parrker You stupid whore gay people are sinners	Y	Y	Y	@em	@em	2959203223
1277751564120346625	2020-06-29T23:51:27.000Z	@HurdOnTheHill @CNN @OutFrontCNN @ErinBurnett You’re a whore for Trump.	Y	Y	Y	@HurdOnTheHill	@HurdOnTheHill	2963445730
1277751035877089280	2020-06-29T23:49:21.000Z	@jasmineshiann Boo you whore!!  (Jealous Bc I work friday🤢)	Y	Y	N		@jasmineshiann	324633624
1277747243072847872	2020-06-29T23:34:16.000Z	@kay_zorr you’re a whore	Y	N			@kay	1273591474542837761
1277747183895404544	2020-06-29T23:34:02.000Z	@miksnails DUDE WHAT THE FUCK YOU WHORE YOURE BORN?	Y	N			@miksnails	1236640582220402688
1277746056986591233	2020-06-29T23:29:34.000Z	@adamamaya05 i did u whore but im still fuccin ugly and so are you :) luv u	Y	N			@adamamaya05	1187829953242513415
1277745825440022532	2020-06-29T23:28:38.000Z	@PressSec SUCH A PIECE OF GARBAGE!! YOU'RE DUMBASS DOESN'T EVEN REALIZE THAT YOU'LL BE USED UP AND SPIT OUT LIKE THE  CHEAP WHORE YOU ARE! ;)	Y	Y	Y	@PressSec	@PressSec	818927131883356161
1277745196831330304	2020-06-29T23:26:08.000Z	@JustMyron You got that times 4. So that makes you a quadruple whore.	Y	N			@JustMyron	38303198
1277742406008528899	2020-06-29T23:15:03.000Z	@chuckwoolery @TeamPelosi you are a WHORE	Y	Y	Y	@chuckwoolery	@chuckwoolery	462104542
1277742003762024450	2020-06-29T23:13:27.000Z	@slaykurdae_ Maybe he won't get you Door because you are a whore	Y	Y	Y	@slaykurdae	@slaykurdae	764932580445741056
1277741701881184256	2020-06-29T23:12:15.000Z	@fleekynu Get a job you whore 🤣🤦🏽‍♂️	Y	Y	Y	@fleekynu	@fleekynu	4581229708
1277740658065891330	2020-06-29T23:08:06.000Z	@kimguilfoyle You are Donnie Jr’s whore! Bought and paid for  by the Trump campaign. The less you say the better for you. #TRE45SON	Y	Y	Y	@kimguilfoyle	@kimguilfoyle	25101996
1277739837550968833	2020-06-29T23:04:51.000Z	@timesouts shes just hot and you’re also an attention whore ❤️	Y	D			@timesouts	1108603315175198721
1277739765891125254	2020-06-29T23:04:34.000Z	@Leslieoo7 I don't try to have people give a damn what I think....you are the attention whore!   I am comfortable in my WHITE skin little girl..... go back to bed now and mommy will wake you for dinner.	Y	Y	Y	@Leslieoo7	@Leslieoo7	2420848054
1277739425540321281	2020-06-29T23:03:12.000Z	@GDinhiero "Lol good luck thot being a whore on the internet is all you'll ever be!"	Y	N			@GDinhiero	1195761276946911238
1277738450989563911	2020-06-29T22:59:20.000Z	@VampireGhuleh @GGlGOODE gianna you did not just rt this whore	Y	D			@VampireGhuleh	344681318
1277738097015427082	2020-06-29T22:57:56.000Z	@Shuushlol you STUPID fuck you absolute WHORE. I CANNOT believe you took my TWEET. may god cast misfortune on you and your whole family	Y	D			@Shuushlol	840065451233177600
1277736242369593344	2020-06-29T22:50:34.000Z	@shitpostwhore @TristenAlequin then you’re a whore	Y	Y	Y	@shitpostwhore	@shitpostwhore	1142240007085678592
1277735030920482816	2020-06-29T22:45:45.000Z	@CFC__dylan Not until you take back what you said whore	Y	N			@CFC	771820195539214336
1277732376102273026	2020-06-29T22:35:12.000Z	@streamcIear who are you to tell what people can or can't say? A desperate attention whore thirsty for a bunch of likes and rage comments - that's who you are.	Y	Y	Y	@streamcIear	@streamcIear	953387381348098050
1277731854989361152	2020-06-29T22:33:07.000Z	@L_A_Baker @JoeBiden @realDonaldTrump so now you care about wearing masks cause you got threats 😍😍 thank you whore you do NOT deserve human rights x ✨	Y	Y	Y	@L	@L	259096053
1277730470420033536	2020-06-29T22:27:37.000Z	@fuhtrue Don’t you ever disrespect the beebs you whore	Y	N			@fuhtrue	1254784531292274691
1277729479146733571	2020-06-29T22:23:41.000Z	@doormatt456 You r still v cute shut your whore mouth	Y	D			@doormatt456	944915738510417921
1277729265635799041	2020-06-29T22:22:50.000Z	@wertee6 @EMODEGEN you literally just give me cc whore vibes	Y	N			@wertee6	1102596628932972546
1277729020566581250	2020-06-29T22:21:52.000Z	@Jeanniebeany I wasn't talking to you. Shut the fuck up you goddamned pathetic whore.	Y	Y	Y	@Jeanniebeany	@Jeanniebeany	31303963
1277727105531490312	2020-06-29T22:14:15.000Z	@RaulGarcia1616 You see what i mean? You talk about my vibes but yours been trash i hope you get heart burn from all that food you eat at night  you whore	Y	N			@RaulGarcia1616	574980054
1277726819559575554	2020-06-29T22:13:07.000Z	@skuise @jaime_wallowa You shut your whore mouth	Y	Y	N		@skuise	964296646174658560
1277723709508288512	2020-06-29T22:00:45.000Z	@ryanmadray bc you’re a lil whore	Y	N			@ryanmadray	3302412467
1277723615648251905	2020-06-29T22:00:23.000Z	@elkballoloco boo you whore!	Y	N			@elkballoloco	96228247
1277722746403815427	2020-06-29T21:56:56.000Z	@Mechanical_Prop @FinnSnaca IT'S ON I-90 YOU WHORE	Y	N			@Mechanical	1242294316355031040
1277722539972853761	2020-06-29T21:56:07.000Z	@BunnyAyu You clown. You copied and pasted this post word for word from other accounts with "stories" in the past few days. Exactly same. What is there to process? You're a trashy whore that makes a living by sexualizing your body. You want us to believe those DMs really affected you?	Y	Y	Y	@BunnyAyu	@BunnyAyu	794394294
1277721821203369984	2020-06-29T21:53:15.000Z	@dave_ewins @GeorgeTakei You whore!  lol	Y	N			@dave	397871197
1277719292377739266	2020-06-29T21:43:12.000Z	@HeatherBlevins_ BITCH COME AT ME WITH FACTS DUMB SLUT. You met your heroin addicted baby daddy in rehab you zan whore 🤣🤣 you used to “protect the trap” for drugs and dick in Aldora sis. Don’t get mad bc I called out your friend. Speak facts not what you heard or think you know 😂	Y	Y	N		@HeatherBlevins	261273554
1277719166334754817	2020-06-29T21:42:42.000Z	@ImMarbii you whore https://t.co/LFJ5bIpKtQ	Y	S			@ImMarbii	1218629882487246848
1277719024621760514	2020-06-29T21:42:08.000Z	@XzombishX @TheMainFraine Don't pretend you don't know you whore. https://t.co/LfyXRxbujh	Y	N			@XzombishX	179686871
1277718593732579329	2020-06-29T21:40:26.000Z	@ugawoman01 look at you pretending to be nice now..its past your prostitution time Go make good use of yourself WHORE	Y	S			@ugawoman01	1081853401812688896
1277718306217132032	2020-06-29T21:39:17.000Z	@CBelloAntiman boo you whore https://t.co/GYVikQUQ1P	Y	N			@CBelloAntiman	283806059
1277717630795710464	2020-06-29T21:36:36.000Z	@adrixn10 you’re just mad because you are a WHORE 😭😭😭	Y	N			@adrixn10	972796338390818817
1277717128456605697	2020-06-29T21:34:36.000Z	@BreezeMoneyMane Lmao check this out tho. Your mom is a pastor and the preacher/pastors kids are always freaky. Freaky people tend to be whores so either way you’re still a whore lol	Y	S			@BreezeMoneyMane	633290131
1277715796630949888	2020-06-29T21:29:19.000Z	@thetoplessraver @craigstanford @lvnitup22 Ok naked attention whore chick. Whatever you say! You maybe the biggest narcissist on twitter! Congrats! https://t.co/AyCHfqro19	Y	Y	Y	@thetoplessraver	@thetoplessraver	1185377361958703105
1277715125529501697	2020-06-29T21:26:39.000Z	@lesbiannamjoon1 @softksoo yes accept the truth you clown ass whore ❤️	Y	D			@lesbiannamjoon1	1218053003426586624
1277715039785562114	2020-06-29T21:26:18.000Z	@TSwiftNewsLA I'll tell you what makes me sick Taylor is you. You whore. You done slept with everything under the sun and your cat screeching voice makes me vomit. Why don't you come and take my Confederate flag. Send one of your rap buddies to try it. You anti American piece of shit!	Y	S			@TSwiftNewsLA	940772408654311424
1277714233745162246	2020-06-29T21:23:06.000Z	@oshyvfx @Faylayx @kirxmi you whore	Y	N			@oshyvfx	992834014145863680
1277712847200350208	2020-06-29T21:17:36.000Z	@Jewwbaccaa how about 40 likes to not do it? wtf is wrong with you attention whore ass mfs. smh https://t.co/IYqTrLwS4x	Y	N			@Jewwbaccaa	1082439863935356930
1277712574973386752	2020-06-29T21:16:31.000Z	@Andrewsoned I saw you whore. From one side to another. Won't say some'.😝	Y	N			@Andrewsoned	253013557
1277712544476598277	2020-06-29T21:16:24.000Z	@miisha_mir I thought you were my wife 🥺 WHORE	Y	D			@miisha	1125384380762009601
1277712305212608513	2020-06-29T21:15:26.000Z	@leenock5555 @haIfheartedcIub @ghovstin No ill go cancel u to crybaby crave if you ever come near any kind of fandom we will block u whore	Y	Y			@leenock5555	1249215657587232768
1277711373942824960	2020-06-29T21:11:44.000Z	@tthestrangervon dont u got imaginary relationships to make up with nice gentlemen that you will never get cuz you’re a FAT WHORE PATRICE!	Y	Y	Y	@tthestrangervon	@tthestrangervon	613906548
1277709761803321344	2020-06-29T21:05:20.000Z	@smdogtfbyurdad @aishaA1302 Shut up you fetus looking whore.	Y	D			@smdogtfbyurdad	916069447835758592
1277707133228855302	2020-06-29T20:54:53.000Z	@Angeliclxghts YOU WHORE!	Y	D			@Angeliclxghts	1188292131351334913
1277706965775314944	2020-06-29T20:54:13.000Z	@Surudoi2 You are our whore though smh	Y	D			@Surudoi2	1057362847251005442
1277705110173384711	2020-06-29T20:46:51.000Z	@___KillaKenn Even though you spinned me yesterday. Whore	Y	Y	Y	@___KillaKenn	@___KillaKenn	1277697043188920320
1277704709550280704	2020-06-29T20:45:16.000Z	@vmnIy boo you whore!! i have a car!	Y	D			@vmnIy	1166592588025073666
1277704519514755073	2020-06-29T20:44:30.000Z	@ShyDeplorable @Flashmx1 So your not just an idiot your a whore how nice your parents are probably extremely proud of you	Y	S			@ShyDeplorable	1219055145234776065
1277704319320625152	2020-06-29T20:43:42.000Z	@bizrrao @HelloImAudi WHO THE FUCK IS ALEX YOU DUMB FUCKING WHORE	Y	D			@bizrrao	1253449928153739264
1277702713577439233	2020-06-29T20:37:20.000Z	@NicoleSchinelli @Bethenny @Andy @BravoTV You didn’t do jack shit... what a Karen whore thinking you could get that done... put some pants on for God’s sake... it’s gonna get cancer on it	Y	Y	Y	@NicoleSchinelli	@NicoleSchinelli	479154447
1277701832299753476	2020-06-29T20:33:50.000Z	@cindybabe__ Men leave u because you are a new age whore and have nothing to offer other than sex	Y	D			@cindybabe	1202493049336713216
1277700436749762563	2020-06-29T20:28:17.000Z	@AprilVeee You called me when I was already @ the mtns thats why I didn't answer whore	Y	S			@AprilVeee	196822506
1277700401832382464	2020-06-29T20:28:08.000Z	@kjskth95 ewww....are you a whore ??	Y	Y	Y	@kjskth95	@kjskth95	1073604722001612802
1277698977417355265	2020-06-29T20:22:29.000Z	@slizzzg @kaathyym I knew you were a whore. @slizzzg	Y	Y	Y	@slizzzg	@slizzzg	3742201033
1277698404185853953	2020-06-29T20:20:12.000Z	@beynmk IM OFFERING YOU TOMATOES YOU UNGRATEFUL WHORE	Y	D			@beynmk	1008294489214062593
1277697832049430528	2020-06-29T20:17:56.000Z	@Almighty_Rolla @ceemulahgang @QueenYanniepooh Slickster Definitely Having His Way 🕺🏾@ceemulahgang If You Miss Me Just Say That Lil Whore 😂					@Almighty	188924006
1277696775256780800	2020-06-29T20:13:44.000Z	@noohtaleb Don’t hide the reply you whore 🤬	Y	D			@noohtaleb	3039688190
1277696416987611136	2020-06-29T20:12:18.000Z	@XXRebellion_ Trans women are way fucking prettier than you’ll ever be whore 😎	Y	N			@XXRebellion	1273255029139320833
1277696294811664384	2020-06-29T20:11:49.000Z	@incojimin_ ME YOU FUCKING WHORE	Y	N			@incojimin	1268109654577614849
1277696139219763200	2020-06-29T20:11:12.000Z	@QuariusYoung @RickWil24438831 You first fucking K-pop whore	Y	D			@QuariusYoung	1266234721907863554
1277695932172316672	2020-06-29T20:10:23.000Z	@schIampe stfu i will kill you whore	Y	Y	Y	@schIampe	@schIampe	1070434862836973568
1277694197030584320	2020-06-29T20:03:29.000Z	@_sully97 You’re a whore x	Y	N			@	870334981
1277693025997619201	2020-06-29T19:58:50.000Z	@Kokomothegreat @ccadelago You are white you betray your own people whore	Y	Y	Y	@Kokomothegreat	@Kokomothegreat	769603196834635776
1277692879306207234	2020-06-29T19:58:15.000Z	@MethiaLydiaN How disgusting you are. Shameless whore	Y	Y	Y	@MethiaLydiaN	@MethiaLydiaN	816348689136500737
1277691544263409666	2020-06-29T19:52:57.000Z	@ShakssXO boo you whore	Y	N			@ShakssXO	787370273171537920
1277691536785002496	2020-06-29T19:52:55.000Z	@we_are_somto No you whore.	Y	D			@we	774763228656242688
1277690976358760453	2020-06-29T19:50:41.000Z	@iswaoi sus huevo mirándote mandar este tuit: you wish whore	Y	N			@iswaoi	1205264652755750912
1277690585990565888	2020-06-29T19:49:08.000Z	@VMINB4BIE FUCK NO YOU WHORE	Y	D			@VMINB4BIE	1240816760359727107
1277688153466380294	2020-06-29T19:39:28.000Z	@pokimanelol Fuck off you fucking whore https://t.co/Ijhk63vUxW	Y	Y	Y	@pokimanelol	@pokimanelol	2244953047
1277687790378070022	2020-06-29T19:38:02.000Z	@BernethKoopman You dirty little whore! Omg I’m sure you were even born naked you sassy minx! https://t.co/hYH50cJALH	Y	N			@BernethKoopman	40495078
1277687071168245766	2020-06-29T19:35:10.000Z	@_kayliebat_ you’re my whore now 😌	Y	D			@	1024994674770096131
1277685071647059969	2020-06-29T19:27:13.000Z	@curiouslytata i warned you whore x	Y	D			@curiouslytata	888857837048344576
1277681210593026054	2020-06-29T19:11:53.000Z	@ovenlasagna you whore of course i will	Y	Y	Y	@ovenlasagna	@ovenlasagna	1265040922133385222
1277679681760825344	2020-06-29T19:05:48.000Z	@PuppyNoemie Haha maybe I should order you do a post telling everyone what you really are ~ Would you like that whore? ~	Y	N/A			@PuppyNoemie	1122390315971878912
1277679493713444869	2020-06-29T19:05:04.000Z	@shineesknees someone retweeted it why don’t you stfu and mind your business whore	Y	S			@shineesknees	1093744545982889984
1277678773698285568	2020-06-29T19:02:12.000Z	@ab_deuces Why are you such a whore	Y	S			@ab	1119826356
1277674633332957185	2020-06-29T18:45:45.000Z	@abboyabbo ok that was uncalled for you whore	Y	Y	Y	@abboyabbo	@abboyabbo	959039169124339712
1277673222704713732	2020-06-29T18:40:08.000Z	@TheJayBurns I told you this a month ago whore	Y	N			@TheJayBurns	27080059
1277669694225383424	2020-06-29T18:26:07.000Z	@Slapp95 @FlockoHoncho Well now you know....... come correct whore 😂	Y	N			@Slapp95	385721798
1277665093803802624	2020-06-29T18:07:50.000Z	@YoungKookiees You know which part you whore	Y	Y	Y	@YoungKookiees	@YoungKookiees	744021012
1277664318625021956	2020-06-29T18:04:46.000Z	@IAmTommy1990 Show me where I threatened violence again? Oh right you were wrong. Now piss off you Nazi whore.	Y	S			@IAmTommy1990	1079350617456414720
1277664264606498816	2020-06-29T18:04:33.000Z	@CaucasianJames You whore	Y	N			@CaucasianJames	272985460
1277661749307555841	2020-06-29T17:54:33.000Z	@tehokosongice You whore i fking love it	Y	Y	N		@tehokosongice	310333440
1277661415017455621	2020-06-29T17:53:13.000Z	@MatteiniTheWise You shut your whore mouth	Y	N			@MatteiniTheWise	303624680
1277660867174322177	2020-06-29T17:51:03.000Z	@fckpaige_ You’re a lint licker you cat rubbing whore	Y	Y	Y	@fckpaige	@fckpaige	622619825
1277660473005969409	2020-06-29T17:49:29.000Z	@KMARAJ_ yet you wonder why we annoy y’all cause if you ain’t care you wouldn’t have replied 😂😂😂 good day whore	Y	Y	Y	@KMARAJ	@KMARAJ	1017232156077092864
1277659253918949376	2020-06-29T17:44:38.000Z	@anwesha_saxena @Kavitha_4u2u @IMyra9 @kaamuk_saloni @kanikatrip @NangiLadki3 @sluty_niharika @ShephaliGhosh @ImBellaBitch1 @UrNiyati @lipakshi_kapoor @Sanskruti_Billi @Queen_of_Lustt @Sluty_kanika @randi_alisha @Pooja_Queenn @Shia_Reshma @sarika_cu @hashtagrialove @LustyTara @yaarbaazkamini @_BBC_Dominator_ @oldwinesarita @madhusharma011 @FamilyIllegal Really ??  You are mine whore !  I can do whatever i want to do with you .	Y	Y	N		@anwesha	1242683392908382215
1277657889436348416	2020-06-29T17:39:13.000Z	@LydaKrewson you're a disgusting whore	Y	Y	Y	@LydaKrewson	@LydaKrewson	28263652
1277656897571749890	2020-06-29T17:35:16.000Z	@ANAKlNISM @xspaceangelsx here's a tip hayden whore # 2 how about you mute the ship and don't interact if it triggers you? we abuse survivors have been telling you guys for years how much it hurts being called abuse apologist by people on the internet because of two space wizards.	Y	D			@ANAKlNISM	1144168835827847168
1277653203576918017	2020-06-29T17:20:36.000Z	@ChevisLynn omg you whore	Y	Y	N		@ChevisLynn	2316472417
1277652858071068673	2020-06-29T17:19:13.000Z	@SethAaron03 you love you fuckin whore	Y	N			@SethAaron03	746564556109938688
1277651414886408192	2020-06-29T17:13:29.000Z	@wendythebicon @friendsofmable @CodesterTheChad You better stay the fuck away from my pig you whore	Y	D			@wendythebicon	1276205897103147010
1277650944478580736	2020-06-29T17:11:37.000Z	@VllwaysRude You’re the 1st person I’m coming after count your days whore	Y	N			@VllwaysRude	373722722
1277649857101037568	2020-06-29T17:07:18.000Z	@nellygivesnofu1 deactivate you whore ♡ It’s weird	Y	Y	Y	@nellygivesnofu1	@nellygivesnofu1	1078701034976043009
1277649648195420161	2020-06-29T17:06:28.000Z	@Zeitkammer1312 You fucking whore had it not been for twitter rules I would of called you something much worse	Y	Y	Y	@Zeitkammer1312	@Zeitkammer1312	1015337531876020226
1277646824191508480	2020-06-29T16:55:15.000Z	@LeeDani67138893 @ToddFarrellJr Boo you whore https://t.co/0wS7iRgAyd	Y	D			@LeeDani67138893	1259088568632426496
1277646447001980930	2020-06-29T16:53:45.000Z	@laytastic1 @LithpGod @Ayceo1 @skaijackson It's called a lisp you inconsiderate whore	Y	D			@laytastic1	1032102926213361666
1277645675908530178	2020-06-29T16:50:41.000Z	@needyhostage Eat shit you fat whore	Y	Y	Y	@needyhostage	@needyhostage	1119599138650324992
1277645344206213120	2020-06-29T16:49:22.000Z	@lyd_patrick They did you a favour you fat whore	Y	Y	Y	@lyd	@lyd	540887164
1277644491923521537	2020-06-29T16:45:59.000Z	@AshWasTooken wow you too? whore..?	Y	D			@AshWasTooken	1252705659356930048
1277635199824625665	2020-06-29T16:09:03.000Z	@honeyzuiice Fuck you I've earned more than enough you piccadilly whore	Y	Y	Y	@honeyzuiice	@honeyzuiice	1204312951512915968
1277634319461298177	2020-06-29T16:05:33.000Z	@JustKelseey Okay thank you ill be expecting it whore ☺️	Y	Y	Y	@JustKelseey	@JustKelseey	200641308
1277634077156311040	2020-06-29T16:04:35.000Z	@keebusman @Teclef @oppaigoddess_ I'll rest when you stop being a slutty whore	Y	D			@keebusman	3390655323
1277633909304578055	2020-06-29T16:03:55.000Z	@seokseokcore @K1MK31 Stfu whore I will put you in your mf place just you wait.	Y	D			@seokseokcore	1254270540379979776
1277633771240488960	2020-06-29T16:03:23.000Z	@haikyubts YOU WHORE. BOTH.	Y	Y	Y	@haikyubts	@haikyubts	969950939053355008
1277633665355223040	2020-06-29T16:02:57.000Z	@whalesnroses SHUT UP YOU WHORE !!!	Y	N			@whalesnroses	1267270775272345602
1277631594656870402	2020-06-29T15:54:44.000Z	@vindemonium You are a whore	Y	N			@vindemonium	1061365094540603397
1277630905448837123	2020-06-29T15:51:59.000Z	@bigboy4487 @OSo_Feisty5 Nobody asked you bitch. We deserve everything whore.	Y	N			@bigboy4487	1181318887679434752
1277630617383993357	2020-06-29T15:50:51.000Z	@hdubb_ And I ain’t see you not once whore.	Y	N			@hdubb	182253081
1277627521601810432	2020-06-29T15:38:32.000Z	@alyssa_schoener Do I get something special if I call you a whore?	Y	Y	Y	@alyssa	@alyssa	2297595813
1277627457458393088	2020-06-29T15:38:17.000Z	@moxie_mo24 @MsPanda007 @SirMarchmain @EricaRN4USA Shut the fuck up you disgusting whore	Y	Y	Y	@moxie	@moxie	3294238980
1277626056027959296	2020-06-29T15:32:43.000Z	@vytalow YOU SHUT YOUR WHORE MOUTH NOW	Y	N			@vytalow	1194894809594392577
1277624744091811840	2020-06-29T15:27:30.000Z	@flickershabit @softlilharry 👎🏼👎🏼👎🏼 boo you whore	Y	D			@flickershabit	1113437575
1277620387472236548	2020-06-29T15:10:12.000Z	@koyaflrt boo you whore https://t.co/FTSzNCWYqY	Y	D			@koyaflrt	1275958462682284032
1277617103760130051	2020-06-29T14:57:09.000Z	@madsslacroix you’re the fattest whore ever	Y	D			@madsslacroix	1267202773793353728
1277611067233972224	2020-06-29T14:33:09.000Z	@Balloum12 @mp4Adam @mws @FaZe_Rain you dont know how to curse and its funny whore bitch slut simp LMAOOO	Y	S			@Balloum12	1124974042501603328
1277605645731147782	2020-06-29T14:11:37.000Z	@RealMahBandz I got video whore you ain’t low 😂	Y	Y	Y	@RealMahBandz	@RealMahBandz	1201233599623782400
1344433070749995008	2020-12-30T23:59:57.000Z	@tlicunt @Folk89Red @bjorkspears No don’t do nothing you ain’t worthy of my presence please go keep being a whore and go keep defunding bomba granola please stop bothering me 😂😂😂	N				@tlicunt	1343416686549098498
1344433015041228801	2020-12-30T23:59:43.000Z	@core_elundis Do us a favor and just shut the fuck up you’re an ugly ass whore  Jimin on the other hand IS SO HOT 😩	Y	N			@core	1177728612331601920
1344432911563440129	2020-12-30T23:59:19.000Z	@senatemajldr Yeah Merry Christmas you traitor whore. You’re a big part of the reason this country is in a tailspin. The Lord can forgive you but I certainly won’t.	Y	D			@senatemajldr	1249982359
1344432704264294400	2020-12-30T23:58:29.000Z	@Geethee2 o um you were gonna whore your self out in hopes of getting clients and having sugar daddies that way   i overthink stuff	N				@Geethee2	1159787077329981442
1344432578476998656	2020-12-30T23:57:59.000Z	@annneessaa I have hate in my heart while you call someone “Pastor Holy Whore”? Girl get you an exorcism for the hypocrisy.	N				@annneessaa	3241096718
1344432449099603970	2020-12-30T23:57:28.000Z	@uswpam11 LIKE THE PEDOPHILE CASE THAT SHE DECLINED TO PROSECUTE IN SAN FRANCISCO PRESIDENT HARRIS WILL MAKE THIS ALL DISAPPEAR.  WHAT DO YOU EXPECT TO HAPPEN WITH A PEDOPHILE AND A WHORE AS PRESIDENT AND VP	N				@uswpam11	988369256
1344432148066037767	2020-12-30T23:56:17.000Z	@GreggLee21 *she did her best Regina George impression* Gregg you whore!	N				@GreggLee21	1299793273574305794
1344431715154989056	2020-12-30T23:54:33.000Z	@FutileEarth @laxman0317 @CeledonianError @JeremyG222 @sinz54 @CCholeric @amahdy @CNNPolitics I wonder why Canadians have to travel here to get serious care like a surgery or an operation. Healthcare sucks ass in Canada...on top of that you’re taxed out of your mind so it’s not “free” in any way. But sure the US is a whore for capitalism.	N				@FutileEarth	1208444054616195072
1344431504613494785	2020-12-30T23:53:43.000Z	@pissoups hhhhh love you whore	N				@pissoups	937160191342243840
1344431246542135300	2020-12-30T23:52:42.000Z	@senatemajldr You sir are a political whore in every sense of the word whore. Anything for your side and for money. Damn the people who are suffering. It must be nice having all that money and power while the little people suffer. You’ll get yours. I’ll enjoy it.	N				@senatemajldr	1249982359
1344431167433564162	2020-12-30T23:52:23.000Z	even if you get the courage to talk to them........am I overthinking this? Yes yes I am. Do I feel like even writing this is bad? Yes yes I do. Do I feel like a whore for attention? Oh hell yeah I do and I don't like it	N					566132717
1344431142695481345	2020-12-30T23:52:17.000Z	@bangpinksdna @jentlejoon GIRL I REMOVED YOU AND ADDED YOU AGAIN WHORE	N				@bangpinksdna	1128225721430827008
1344430968376074252	2020-12-30T23:51:35.000Z	@OffZ_Wall @infinidie oh wait that was derrick i love derrick nate i ment fuck you i’ll deadass smack you with my dildo whore	N				@OffZ	717412462157402112
1344430725156757504	2020-12-30T23:50:37.000Z	@toryboypierce Are you really this thick or just being an attention whore?	N				@toryboypierce	1944466748
1344429991203905536	2020-12-30T23:47:42.000Z	@sarahlouice YOU DONT EVEN LIKE MY TWEETS WHORE	Y	Y	Y	@sarahlouice	@sarahlouice	1276634077488132097
1344429945863294976	2020-12-30T23:47:32.000Z	@_melopez01 thank you mya 🙇🏻‍♂️ and i ain’t that big of a whore 🙄 but te quiero mas 🤍	N				@	1132499552764928001
1344429802451849220	2020-12-30T23:46:57.000Z	@KingPoseidon_Ob 🥱 anyway you done call me a whore. goodnight	N				@KingPoseidon	222678271
1344429462432178177	2020-12-30T23:45:36.000Z	@CarrieEmberlyn Pt7 I LOVE your snapchat name mine will be ReginaBabylon777. As in Babalon 777 rides The Beast 666. Sacred Whore. Been sick and busy since Aug so my Onlyfans was put off til now. Prayers I get it working. Having HELL with bank links! You've been inspiring me since YouTube 💕	N				@CarrieEmberlyn	1285693093908557824
1344429233402224640	2020-12-30T23:44:42.000Z	@CarrieEmberlyn Pt6 When you tweeted that I had a complex dream where Aliester Crowley gave me a mission. I've been studying the Babalon Working Rituals by Jack Parsons and I'm ENTHRALLED. Sexual revolution is part of this. Sacred Whore. Liber 49.	N				@CarrieEmberlyn	1285693093908557824
1344428946591506433	2020-12-30T23:43:33.000Z	@baIdjeet No I think it’s because you’re a whore	Y	Y	N		@baIdjeet	994584005566697475
1344428671726219264	2020-12-30T23:42:28.000Z	@RUNICGODDESS “Oh but I do.”  Pushing her luck or not the Lancer was going to win and she shoved Skadi to her knees to prove that.  “How’d you feel about going from a proud cocky queen to a cocksucking whore~?”  With a flick of the wrist Caenis’ thick slab of fuckmeat landed on Skadi’s—	N				@RUNICGODDESS	1344387999648329729
1344428416716693505	2020-12-30T23:41:27.000Z	@LouisHabitat answer dms you whore x	Y	D			@LouisHabitat	1305096461055676416
1344428347074363392	2020-12-30T23:41:10.000Z	@ElasticNen YOU WHORE.  PUT ONE ON. NO ONE WHAT'S TO SEE THAT.	Y	N			@ElasticNen	1291431484168044544
1344428308910505986	2020-12-30T23:41:01.000Z	@errjustsaying @Bigdogdigs No you’re just a massive Covid whore that likely loves everything that’s going on just to give your sad little life some excitement. Get a grip and realise that people’s lives are in danger and you yes YOU are part of that problem	N				@errjustsaying	2424097747
1344428244502769665	2020-12-30T23:40:46.000Z	@k__eezy You’re such a whore 😭😭	N				@k	259977999
1344428150382538752	2020-12-30T23:40:23.000Z	@overdedication @SpitfireKween don’t you quote hozier to me you whore	N				@overdedication	1331870351429677056
1344427303615557633	2020-12-30T23:37:02.000Z	@CH1IAKI @dixiedamelio She got famous because of her sister she did not ask for that. An influencer does not have responsibility’s they do not have to post they choose to post because of people like you the most influencers have depression and anxiety. dumb whore	Y	D			@CH1IAKI	1196248138157195264
1344426607579197441	2020-12-30T23:34:16.000Z	@thatogvictor You in my mentions whore	Y	N			@thatogvictor	844574131207245824
1344426391383793666	2020-12-30T23:33:24.000Z	@deanwinswhore @dilfsacha @milfysam @samifershoe add me back in the gc you whore	N				@deanwinswhore	1226827666373910528
1344426072163676172	2020-12-30T23:32:08.000Z	@NerfKinderPls Yup don’t be a podcast whore more then you are	N				@NerfKinderPls	988447737128644608
1344426020754120704	2020-12-30T23:31:56.000Z	@aliceonkino Dirty bomb is fastest if you kill whore. Otherwise pub zombies w 4 players is best. Zombies is less stressful but gets kinda boring when grinding for skins/xp	N				@aliceonkino	3230186900
1344425695687057408	2020-12-30T23:30:38.000Z	@HawleyMO @HawleyMO  Oh you lying whore!	Y	N			@HawleyMO	2352629311
1344425571602866182	2020-12-30T23:30:09.000Z	@shortdarkskinny I just KNOW. I mean I simply just know YOU ain’t fixing YOUR lips to call ME a white woman’s whore	N				@shortdarkskinny	24212351
1344425540220932098	2020-12-30T23:30:01.000Z	@CityNewsVAN I hope all the bad you have done tk@our families and business to@come back to you double and triple fucking whore	N				@CityNewsVAN	18554920
1344425374025846784	2020-12-30T23:29:22.000Z	@1Newerth1 im an actual whore for pasta so if you're going for restaurant food i loooove cheesecake factory's spicy chicken chipotle pasta or california pizza kitchen's garlic cream fettuccine	N				@1Newerth1	3257543468
1344425354124013568	2020-12-30T23:29:17.000Z	@AlecBaldwin Yeah you can take a ride with your fake crack whore wife	N				@AlecBaldwin	288452305
1344424689666502656	2020-12-30T23:26:38.000Z	@MontroseOf @AuthorKimberley You’re far too kind.  She’s a whore.	N				@MontroseOf	1319379020107157507
1344424677536641027	2020-12-30T23:26:35.000Z	@catturd2 @gatewaypundit Ah Mitch pelosi whore and more. We figured you’d do this. We the people will remember.	N				@catturd2	1043185714437992449
1344424612046770177	2020-12-30T23:26:20.000Z	@curlymarfasa @mixedchixc So maybe just maybe if you mind you business everything will be straight and to clarify I thought she was a automatic Twitter account that’s why I said slut be the quoted tweet was saying whore and I was tryna to be funny so get off my dick hoe🧡	N				@curlymarfasa	4883398131
1344424207128682499	2020-12-30T23:24:43.000Z	@davy6541 You filthy fucking porn whore! Would love to use you as my cum dump and jerk off toy	N				@davy6541	1331361121442418695
1344424087851065344	2020-12-30T23:24:15.000Z	@axelcastrom @RvgamezYg @Kwailan_ omg i’m selling my body and i’m such a whore 😱 you’re literally defending a terrorist 🤣 bye bye	N				@axelcastrom	979954172664647680
1344423792844697610	2020-12-30T23:23:05.000Z	@Travisdhanraj you corrupt media whore . Justin Journos can’t report on Bill Morneau boarding a plane in your city... of course not. Pieces is shit like you never report on any negative Liberal story . You and  @globalnews a bought and paid for media WHORES !	N				@Travisdhanraj	67805368
1344423703250149376	2020-12-30T23:22:43.000Z	@scoupsfan wait my last tweet looked like i was calling you a whore sorry about that but dress like a whore!!!!	N				@scoupsfan	1241418992390156290
1344423428238008326	2020-12-30T23:21:38.000Z	@bigkingphil @Humphreys_Head You’re a nasty person Phil! It doesn’t cost anything to be nice. Don’t call Owen a whore! You’re a mean wazzock	N				@bigkingphil	1334247705254760452
1344423065208295424	2020-12-30T23:20:11.000Z	@cyliapotter @younngfrann @tanamongeau okay wait... where in this post do you see TANA calling her a whore?	N				@cyliapotter	1331324161013260292
1344422808999358464	2020-12-30T23:19:10.000Z	@Twitch why do words predominantly used against men like "simp virgin incel" get you banned but "slut &amp; whore" (curses against women) don't get you banned. Misogyny much?	N				@Twitch	309366491
1344422442651959296	2020-12-30T23:17:43.000Z	@Benimarus_Whore idk 💔 what if it’s bc you got reported and restricted by Twitter 💔💔💔	N				@Benimarus	1316961591338872832
1344422440227758085	2020-12-30T23:17:42.000Z	@TheCapsKneecaps @scout_pat @bigkingphil I was not. Okay maybe he posted a photo and I put 'ew' but it was a joke! Doesn't mean he can call me a whore. Seems a little over dramatic if you ask me	N				@TheCapsKneecaps	1315736390060122112
1344422111847329799	2020-12-30T23:16:24.000Z	@saikicult WTF YOU WHORE	Y	S			@saikicult	1284307122826678275
1344421921975369729	2020-12-30T23:15:39.000Z	@KildashCR Try whore. I'll end you.	N				@KildashCR	1094791129810288641
1344421394055131136	2020-12-30T23:13:33.000Z	1/10 'iWa I jUsT gOt ThE cHiLlS' little bitch flat ass whore why you so dramatic huh? HUH? https://t.co/bcAMgXzpW4	N					1344354525814075392
1344420934996742144	2020-12-30T23:11:43.000Z	@bearpozchaser You whore!  😈☣️🐷	Y	S			@bearpozchaser	1326016174476283905
1344420247504240640	2020-12-30T23:08:59.000Z	@kimguilfoyle you're a whore! https://t.co/yUbsiULqJl	Y	Y	Y	@kimguilfoyle	@kimguilfoyle	25101996
1344419780560732161	2020-12-30T23:07:08.000Z	@Hoosiers1986 @KamalaHarris You forgot “whore”.	N				@Hoosiers1986	36715753
1344419395205005316	2020-12-30T23:05:36.000Z	@diegeticchassis I only missed you calling me a whore cuz you did it right as I was leaving for work	N				@diegeticchassis	1073549918520918016
1344419342180626435	2020-12-30T23:05:23.000Z	@RealSpermator @Menwhoswallow Hard to share when you're a cum greedy whore like myself. 😎	N				@RealSpermator	1021330128381595648
1344418981856354306	2020-12-30T23:03:58.000Z	@__kennyken whore  I’m on the way back  and let me tell my mom how you behaving	N				@	400833525
1344418828160143360	2020-12-30T23:03:21.000Z	Trying to keep me small so I don’t outshine you. You are not slick whore.	N					1302225021306155009
1344418729883553792	2020-12-30T23:02:57.000Z	@faerieonfiIm I see you and I’ll happily chew out any motherfuckin whore for u. ❤️	N				@faerieonfiIm	1333285609671069696
1344418348990427137	2020-12-30T23:01:27.000Z	@fouIegacy I WAS WAITING FOR YOU TO SEE IT GLAD YOU LIKE IT ❤️✨❤️✨❤️✨❤️✨ sharing the same whore!zhongli braincell	N				@fouIegacy	1337919664362565638
1344417861570154498	2020-12-30T22:59:30.000Z	@Benimarus_Whore “ok minor” “now I know why my parents got frustrated with me as a teenager” sir if you don’t stfu and give us a valid argument 🤺🤺🤺	N				@Benimarus	1316961591338872832
1344417610016894984	2020-12-30T22:58:30.000Z	@KXblub @peachiimiin @jkinmyroom @yeohunni @bootyjoonie @staycbn @N3PHYY @softxsope @staycbn Can you just shut the fuck up for once in your life you whore like damn we get it😒😪	N				@KXblub	1245060859216437248
1344417585962618880	2020-12-30T22:58:25.000Z	"i'll never do better than you liz lemon. 'cause you're a cook in the bedroom and a whore in the kitchen"	N					1120868900449726464
1344417512998494208	2020-12-30T22:58:07.000Z	but beomgуu seems to like it moans leaving his lips constantly in a manner of obedience letting himself get carried away by the pleasure of taehуun fucking him without restraint.  "you're nothing but my whore" taehуun says with rough satisfaction. "say it."	N					1343812098065915904
1344417462205509639	2020-12-30T22:57:55.000Z	@WINTCRHAYLE I think you should change ur dn to calahan skogman's whore for accuracy's sake	N				@WINTCRHAYLE	1086863848341204992
1344417342969806855	2020-12-30T22:57:27.000Z	you cant just walk in and be a crazy gay whore at me i'll die	N					1289112502417096705
1344417301941149696	2020-12-30T22:57:17.000Z	@TheRevAl @keyonharrold @AttorneyCrump @NYAmNews You’re just an attention whore!	N				@TheRevAl	42389136
1344417223520219138	2020-12-30T22:56:58.000Z	@reylodirtycrumb The whore knee among us thank you. https://t.co/qfHOCr0JOs	N				@reylodirtycrumb	1264950132866351106
1344416857948909572	2020-12-30T22:55:31.000Z	@realDonaldTrump @FoxNews @CNN I’m sorry they aren’t repeating whatever it is you want them to say. Go fuck yourself you whore.	N				@realDonaldTrump	25073877
1344416847207276547	2020-12-30T22:55:29.000Z	@dualimia Because you’re being a whore	Y	S			@dualimia	1332354707566813185
1344416690222850053	2020-12-30T22:54:51.000Z	@angelslut26 I may make you a cum whore but truth is you love it. 💦💦💦💦	N				@angelslut26	1258017817556910080
1344416663303667717	2020-12-30T22:54:45.000Z	@senatemajldr Your Twitter feed must brim over 💯 times to the millionth power w/reminders of what a festering worthless despicable pus-laden-blob greedy whore you are. You continue to prove you are soulless. You will get yours. It’s inevitable. #StimulusChecks	N				@senatemajldr	1249982359
1344416461268381696	2020-12-30T22:53:57.000Z	@HawleyMO You don’t fucking care about wages. You’ll whore yourself out for Walmart’s money any day	N				@HawleyMO	2352629311
1344416340925419520	2020-12-30T22:53:28.000Z	@blackgirlwatch2 Gizelle ain’t got no money so pastor Jamal must be paying you well whoever behind this account 😂 whew chile so much hate in your heart go talk to God &amp; pastor holy whore	N				@blackgirlwatch2	1310462357663965185
1344416292774830080	2020-12-30T22:53:16.000Z	@Camcamculli You never called me back whore	Y	N			@Camcamculli	2867908842
1344416292242030593	2020-12-30T22:53:16.000Z	@realDonaldTrump @FoxNews @CNN You rode their dick for 4 years. You attention whore	N				@realDonaldTrump	25073877
1344416261908946948	2020-12-30T22:53:09.000Z	@Daniha07919090 @CTVNews I believe you used the term “whore” earlier to refer to women.	N				@Daniha07919090	1344345634262953988
1344416055569993728	2020-12-30T22:52:20.000Z	@laurenboebert You’re insane. She was a model aka whore.  Oh did you forget about how she said she hates Christmas.	N				@laurenboebert	1201670995435646976
1344415878541004800	2020-12-30T22:51:38.000Z	@silknymphe Taste is personal.  She just seems so fake that you can't find anything beautiful about people like that.  Claiming they want privacy and whore themselves out on the publicity train daily.  No respect https://t.co/pE2YvLZbxH	N				@silknymphe	826182974404112384
1344415307792789504	2020-12-30T22:49:22.000Z	@nubbinsmcgee @chrissyteigen Its not your personal life when you put it on social media for the world to see that just makes her an attention whore.	N				@nubbinsmcgee	1314014654180601857
1344415181573509121	2020-12-30T22:48:51.000Z	@Chubabubba @yashar "Normal" for fame whore? Or "normal" for someone like you or me?	N				@Chubabubba	22703865
1344414458488229888	2020-12-30T22:45:59.000Z	@tantantanthe WAAA YOU DIDNT DROP THE LINK IN THE GC YOU WHORE I MISSED THIS :bites you:	N				@tantantanthe	1083310382557614080
1344414222583795712	2020-12-30T22:45:03.000Z	@LeafBlanket @Kyaandere shut your whore mouth up you simp	Y	N			@LeafBlanket	2594867740
1344414214283284484	2020-12-30T22:45:01.000Z	@Ada_Daddyya @opeolu_wa The boy is a whore...I thought you knew?  Pele my dia	N				@Ada	2844702561
1344413871205969926	2020-12-30T22:43:39.000Z	@f4iryhyunni3 we did not you fuking whore	Y	N			@f4iryhyunni3	1005438114331021312
1344413694374109186	2020-12-30T22:42:57.000Z	@PhixiusTV @pixiebabygirl @NancyJoys @JoLawrence0904 @CNNPolitics You're quite the attention whore aren't you?	Y	N			@PhixiusTV	1239950653
1344413559086833664	2020-12-30T22:42:25.000Z	@FavAnimesexual @toorus_whore Shut up you dumb whore	Y	S			@FavAnimesexual	1343192253439860736
1344413440585199616	2020-12-30T22:41:56.000Z	@kookoobabble Both wolves tell us that we are gay bc they are homophobic ((I am unfortunately a huge whore of a slut with aus I love diving into aus you can see me talk abt it and liz grabbing me by the throat bc I havent replied ye	N				@kookoobabble	1291475218612002819
1344413214331854850	2020-12-30T22:41:02.000Z	@FredMoracular you smell that. Smells like whore 💀	N				@FredMoracular	997902792
1344413191829241856	2020-12-30T22:40:57.000Z	@SixBrownChicks You a terrible whore..bc you ain’t put yo kids first..tf they dealing w him for..y’all ain’t married	Y	Y	Y	@SixBrownChicks	@SixBrownChicks	243328891
1344413088972472336	2020-12-30T22:40:33.000Z	@datcataddict @obstancil @abcdemmie Girl I’ve seen your photos.  You look like a cracked out whore.  No one wants that shit.  How pathetic do you have to be that the only thing you have to offer the world is your nasty STD-riddled body.  Fix your life damn	Y	Y	N		@datcataddict	940331134038274048
1344412825649819655	2020-12-30T22:39:30.000Z	@DrChako2 @Drizztdj @FakeDawnSummers Yelling "Get your ass on the bike you fat whore!!" was the next ad push not sure how that was gonna go....	N				@DrChako2	49832842
1344412613619425281	2020-12-30T22:38:39.000Z	@dfhappy Avocado slices not frijoles.  You know what they call a Mexican whore? A frijole pronounced free holie😝😝😝😝😝	N				@dfhappy	134898926
1344411911945912323	2020-12-30T22:35:52.000Z	@theNOELEshow @imabihh2 @trippybeaver An attention whore yeah. Someone that seeks attention. YES. I called you an attention whore. Tf	Y	Y	Y	@theNOELEshow	@theNOELEshow	102687323
1344411612334202882	2020-12-30T22:34:40.000Z	I'm rockin' great smile many think I'm vile. I yell and I jump. You can look but don't you hump. I'm major I roar I swear I'm not a whore! I’m a faggot with a need love to breed. I cheer lead and I act like I'm on speed. All the Straight guys wanna touch my body. Woot.woot	N					858784820142518274
1344411397430497281	2020-12-30T22:33:49.000Z	@NikkiHaley Wasteful tax cuts for the mega rich? You are one of the biggest disappointments in recent history. Who knew you were a whore for the uber rich and authoritarian new Republican party? You fooled me for awhile.	N				@NikkiHaley	1079776144524754944
1344411245827424256	2020-12-30T22:33:13.000Z	@SonnyBunch “Mr. Yang as candidate for mayor do you think there is enough media coverage for politicians in the same city as you and AOC?”  “We're not gonna hide who we are just because some whore shakes her ass.”	N				@SonnyBunch	1229277350853898240
1344410971981316097	2020-12-30T22:32:08.000Z	@bigtiddiewaifus EVERYTHIGN YOU WHORE	Y	N			@bigtiddiewaifus	1094323764937060352
1344410844508151812	2020-12-30T22:31:37.000Z	@HawleyMO You are just a pathetic political whore and Donald Trump is your pimp. I am embarrassed FOR you.	N				@HawleyMO	2352629311
1344410672348745730	2020-12-30T22:30:56.000Z	@finewtherwalls bel follow me back you dumb whore https://t.co/j70ESWqM0y	Y	D			@finewtherwalls	1252299869823348736
1344410665511833602	2020-12-30T22:30:55.000Z	@YolkedYanes you dirty whore https://t.co/38bcQbTc2q	Y	N			@YolkedYanes	958264410
1344410630581678081	2020-12-30T22:30:46.000Z	@CMCRET You can take the hooker out of the whore house but you can't take the whore house out of the hooker.	N				@CMCRET	1927051478
1344410612210798592	2020-12-30T22:30:42.000Z	@BAKUG0BRAINROT @InfinateWisdom @Benimarus_Whore @blksukuna Pretty ironic of you to say that lol	N				@BAKUG0BRAINROT	1236019705464459264
1344410549552078848	2020-12-30T22:30:27.000Z	So uncle caught his woman with a guy in the bathroomnaso fight start oooo even me get chance see things happen small.. Too many talksyou are a whoreyou are this and thatblows just dey fly na so Oga BODE say make dem leave him house ooooo..	N					1241355520889565185
1344410249596342272	2020-12-30T22:29:16.000Z	@violetsummerss Whore and Riley is better slut than you 😂😂	N				@violetsummerss	737742016893714432
1344410236371800065	2020-12-30T22:29:12.000Z	@DetectiveAbby @Boldmantis22bug @RosemoonlightR @NGO_Scars @22KPichu @Galaxyscout578 @DumbYT1 Yes you are bols you whore	Y	D			@DetectiveAbby	1339854551373983745
1344409618559057921	2020-12-30T22:26:45.000Z	@tsukkis_slut you literally asked for me to put a maid outfit on whore	N				@tsukkis	1335100050322714624
1344409460823961609	2020-12-30T22:26:08.000Z	@negusChoco @imabihh2 @trippybeaver I heard whore? Are you calling me a whore? That’s oppressive	N				@negusChoco	872638050337259525
1344409453832138753	2020-12-30T22:26:06.000Z	@Omega_Manx Well what should be said is:  Take your fifthy diaper wearing  ass your cold heartless whore wife and your garbage offspring off the premises and don't EVER come back.  If any of you ever step on this property again you will be shot on site!!	N				@Omega	926763245242912769
1344409383195840513	2020-12-30T22:25:49.000Z	@Alyssa_Milano Can't imagine why anyone would want to listen to a year in review from you. I guess some people can't get enough of listing to a narcissistic elitist self absorbed media whore like you.	Y	Y	Y	@Alyssa	@Alyssa	26642006
1344409321124327424	2020-12-30T22:25:34.000Z	@InfinateWisdom @BAKUG0BRAINROT @Benimarus_Whore @blksukuna When you think prepping for standardized testing is an education lol	N				@InfinateWisdom	1230706443059376128
1344409190534504449	2020-12-30T22:25:03.000Z	@DonaldJTrumpJr Junior you are an ass and your girlfriend is a whore	N				@DonaldJTrumpJr	39344374
1344408829614829568	2020-12-30T22:23:37.000Z	@FendiMani You always in our bussiness you whore	Y	N			@FendiMani	1160370024457986050
1344408760865837057	2020-12-30T22:23:21.000Z	@BubsKek Does grilling that whore help you cope with xrps death? Kek	N				@BubsKek	1297075901159669760
1344408694549864450	2020-12-30T22:23:05.000Z	@JayWinton @fromwc Don’t you mean pastor holy whore? 😂 (I love that name)	N				@JayWinton	398384037
1344408649389600769	2020-12-30T22:22:54.000Z	@_jazmi I’m only a whore for you ✨	N				@	1294755469739712512
1344408234879299584	2020-12-30T22:21:15.000Z	@C4TB0YJE0N @soobstyx If you're tired sleep you whore	Y	D			@C4TB0YJE0N	992189303433449479
1344407982214410241	2020-12-30T22:20:15.000Z	@InfinateWisdom @Benimarus_Whore @BAKUG0BRAINROT @blksukuna Yeah they are mostly teenagers. So you can already guess what you’re dealing with.	N				@InfinateWisdom	1230706443059376128
1344407379237072898	2020-12-30T22:17:51.000Z	@realDonaldTrump @elishatimes Twitter is the main reason why an attention whore like you still gets heard..	N				@realDonaldTrump	25073877
1344407112709885952	2020-12-30T22:16:48.000Z	@ksorbs Have you always been an attention whore or is this a new condition? Either way pre-existing conditions are still covered so please get help now.	N				@ksorbs	33608041
1344406891460521987	2020-12-30T22:15:55.000Z	@ChechetDzong @TeeMeeNorth 😂 😂 😂 I dey help save your market bro she wan destroy am ai and you never finish your whore phase	N				@ChechetDzong	977918634671697921
1344406579714646020	2020-12-30T22:14:41.000Z	@ligudumashige Ay you whore	Y	Y	Y	@ligudumashige	@ligudumashige	1005763435462909952
1344406142705926144	2020-12-30T22:12:56.000Z	@Spect_SpiderMan Because you're an attention whore?	N				@Spect	304865050
1344405794964426752	2020-12-30T22:11:34.000Z	@cupids_genocide HAVE YOU NOT SEEN MY TWEETS LOOKING FOR FUCKING FRIENDS ON ANIMAL CROSSING YOU FUCKING WHORE	Y	N			@cupids	1313126583155265536
1344405415765938178	2020-12-30T22:10:03.000Z	@Benimarus_Whore @InfinateWisdom @BAKUG0BRAINROT @blksukuna You’ve been using brain cells?	N				@Benimarus	1316961591338872832
1344405322778243072	2020-12-30T22:09:41.000Z	@hoodiejoshua bro who are you talking to????? cause i’m most definitely a whore	N				@hoodiejoshua	1064363109119401984
1344405317329686528	2020-12-30T22:09:40.000Z	@sophieelsworth #MurdochsElsworth  the 🥜 gallery dweller trying continuing the Murdoch media narrative turning tricks like a good little journalistic whore and you are  guilty of criminal intent in the way your provided non literal and bias commentary.	N				@sophieelsworth	43797149
1344405239273824257	2020-12-30T22:09:21.000Z	@Benimarus_Whore @WABBlTCH @BAKUG0BRAINROT Then deal with the fact that I will reply to you. Don’t like it then go. You’re the only one being confrontational here.	N				@Benimarus	1316961591338872832
1344403412033662978	2020-12-30T22:02:05.000Z	@Benimarus_Whore @InfinateWisdom @BAKUG0BRAINROT @blksukuna You’re 16 no one cares what you think.	N				@Benimarus	1316961591338872832
1344403313886973959	2020-12-30T22:01:42.000Z	@Diegor_Barros let me be a good little whore for you daddy 🥴🤤  https://t.co/4Lpls0SYN6 https://t.co/Gpyy7F9KSp	N				@Diegor	910041895287504896
1344402257341779968	2020-12-30T21:57:30.000Z	@pissoups I LOVE YOU WHORE	N				@pissoups	937160191342243840
1344401656671334400	2020-12-30T21:55:07.000Z	@Benimarus_Whore @BAKUG0BRAINROT @InfinateWisdom @blksukuna You’re the one typing in all caps and making crude assumptions. If you ask me you’re the one that’s angry.	N				@Benimarus	1316961591338872832
1344401446960304129	2020-12-30T21:54:17.000Z	@ElusiveFred I am pretty sure you do this you are just subtle about it... fuckin gutter whore.	Y	S			@ElusiveFred	1300447157410050052
1344401407286374402	2020-12-30T21:54:07.000Z	@whyhassleme @THR You know what they say about people who make assumptions you no good crack whore https://t.co/iBtyZHfeOd	N				@whyhassleme	1252258732911857668
1344401369944481796	2020-12-30T21:53:59.000Z	@HawleyMO Reported.  GFY you attention whore. #GOPSeditiousTraitors	N				@HawleyMO	2352629311
1344401307826847744	2020-12-30T21:53:44.000Z	@BloopZero I wanted to know overall what did you like and don’t like about both version ? And also your thought about making their mother an homonculus and what you think of that whore : https://t.co/yKOoAhFZih	N				@BloopZero	873271771981631489
1344399808010858497	2020-12-30T21:47:46.000Z	@mir_fect No.  You did right.  They can start to be responsible for their stuff.  If not the sperm donor and his whore can learn to be responsible for their stuff	N				@mir	22079662
1344399759000395776	2020-12-30T21:47:34.000Z	@OCEANGlRL they just called you a whore	N				@OCEANGlRL	560477849
1344399583120674817	2020-12-30T21:46:53.000Z	@hypnoyuu @GachaGoddess Poor doll well work your butt off. I hear you can donate plasma for like $50 at a time or something! Put that body to good use if you're not gonna whore it out heehee	N				@hypnoyuu	466682924
1344399415721693184	2020-12-30T21:46:13.000Z	@HawleyMO How does it feel to be the last idiot Trump's going to use and abuse you dirty treacherous whore?	N				@HawleyMO	2352629311
1344399357399994374	2020-12-30T21:45:59.000Z	@Benimarus_Whore @blksukuna Do you know how to type a full sentence? Like proper wording and grammar? Or do you just like typing like you have a 3rd grade reading level?	N				@Benimarus	1316961591338872832
1344399210590986240	2020-12-30T21:45:24.000Z	@JosepineFluff it's kinda the same tone you'd say "you fucking whore" or something  but I grant you the right to say it it's okay uwu	N				@JosepineFluff	2352542971
1344399004570955776	2020-12-30T21:44:35.000Z	@TraeYoungIsAss you such a white womans whore c’mon man	Y	D			@TraeYoungIsAss	1254408062762389507
1344398968604659713	2020-12-30T21:44:26.000Z	@Grimezsz DETH BY SONIC SLEDJHAMMER OVERDRIVE FROM REZZA YOU VIOLENCE DETH NOW WHORE Q007 QANON COMMIN FOR YOU SLAG	N				@Grimezsz	276540738
1344398886727802880	2020-12-30T21:44:06.000Z	@Benimarus_Whore @blksukuna I know what slave masters did. And did you know that the slave trade industry is still alive and going to this day? I bet you didn’t.	N				@Benimarus	1316961591338872832
1344398228574380035	2020-12-30T21:41:30.000Z	@Benimarus_Whore I haven’t lived with my parents in years. Unlike you I am educated have my own career and pretty well traveled. You’re 16 you think you’re smart. But you’re really not.	N				@Benimarus	1316961591338872832
1344397780291375108	2020-12-30T21:39:43.000Z	@GeorgePapa19 You're such a little whore now that you got your pardon.	N				@GeorgePapa19	850507814023942144
1344397689484681216	2020-12-30T21:39:21.000Z	@Benimarus_Whore @blksukuna You’ve literally not shared any facts by try and accuse me of being apart of rapists and racists. You’ve literally done nothing but be confrontational from the start.	N				@Benimarus	1316961591338872832
1344397601765023747	2020-12-30T21:39:00.000Z	@DesertVoice6 @BoelckeOswald @Jenn83299747 @cgp42 You need to pay attention bubba.   Come here spouting you projection bullshit.   Mary was a whore. Virgins don’t give birth. That’s fuckin stupid.  Mute your dumb Catholic ass. https://t.co/cJl1tEdn7D	N				@DesertVoice6	1342273263053930496
1344397229147238402	2020-12-30T21:37:31.000Z	@Benimarus_Whore You’re 16 you literally know nothing of the world. You’ve got your life on easy mode right now. And nothing about what I’ve said shows that I’m unwilling to have a discussion. I just refuse to take a child seriously.	N				@Benimarus	1316961591338872832
1344397119139049472	2020-12-30T21:37:05.000Z	@seanfeucht @CBSLA You're an attention whore. Stop getting people killed.	N				@seanfeucht	21837858
1344397078529777664	2020-12-30T21:36:55.000Z	(105) Jesus says:  “Whoever will come to know father and mother he will be called son of a whore.” (106) Jesus says:  (1) “When you make the two into one you will become sons of man. (2) And when you say ‘Mountain move away’ it will move away.”	N					3247033999
1344397055687593985	2020-12-30T21:36:50.000Z	@iammrssamuels The look on @GizelleBryant face when she confirmed that it was Pastor Holy Whore's Jamal's phone number was priceless 🤣🤣😆. Thank you Queen @iammrssamuels for that laugh🤣🤣😂	N				@iammrssamuels	833878373759909889
1344396366315982852	2020-12-30T21:34:06.000Z	@CASTAWAYWALLS YOU JUST SAID FACETIMING ME WAS GROSS U WHORE	Y	D			@CASTAWAYWALLS	4142416635
1344396161231237125	2020-12-30T21:33:17.000Z	@BurgersKicks I love the way you whore yourself out with trying to get 37492730472 sponsors; ATC group now selling Burger merch!!	N				@BurgersKicks	1049415925697601538
1344396103110766593	2020-12-30T21:33:03.000Z	@drwhiterabbit1 @karrrinass @RASASVADAXO @CorreaYlene Why you got to bring in Religion into a point where a woman does her own thing because if you’re going into religion god doesn’t care if you’re whore drug addict thief as long as you love him and and knows your heart is in the right place	N				@drwhiterabbit1	1183951644603621377
1344395635001237505	2020-12-30T21:31:11.000Z	@CJinLongBeach @F619sd @BadLuckBrian_SD @anotherbadone Actually the less you act like a attention whore the less attention you will get	N				@CJinLongBeach	1155678025725304832
1344395519653675008	2020-12-30T21:30:44.000Z	@YousefBenYouse @alanaevansxxx @LailaMickelwait You underestimate me. I'm a whore in WAY more places than JUST onlyfans.	N				@YousefBenYouse	928986982541348864
1344395312270635014	2020-12-30T21:29:54.000Z	@Benimarus_Whore @blksukuna There’s that adorable assumption again. You know assuming someone’s race so you can be a dick to them is a form of racism. You must be fun at parties.	N				@Benimarus	1316961591338872832
1344394303666327555	2020-12-30T21:25:54.000Z	@Benimarus_Whore EEEK  HEAD IN HANDS YOU TOO	N				@Benimarus	1316961591338872832
1344394198196379649	2020-12-30T21:25:29.000Z	@ZTSWITHLUV It’s a sweet not candy you whore	Y	D			@ZTSWITHLUV	1271472080685535233
1344393884953161729	2020-12-30T21:24:14.000Z	@souIgheo you can’t if they’ve already locked your account for underage use whore 😭	N				@souIgheo	833461424294858752
1344393693869043714	2020-12-30T21:23:28.000Z	@bts_bighit   Hate comments about jimin... Jk..!  Jimin your not fat.  Your not a slut or a whore. We love you with our SOUL and HEART.  Dont die on us ok? If u do die army will be sad and have they’re mochi lost. Please take a good amount rest. Eat and drink as much as you can	N				@bts	1409798257
1344393189319446529	2020-12-30T21:21:28.000Z	@realDonaldTrump Traitor.  Liar.  Murderer.  Grifter.  Cheater.  Misogynist.  Child abuser. Pimp.  Whore.  Poor father.  Lousy human being.  You take the cake.  Tell your lies to your "base".	N				@realDonaldTrump	25073877
1344392683675127809	2020-12-30T21:19:28.000Z	@TheWeirdKing719 FUCK YOU WHORE THAT REASON IS INVALID YOU SOUND LIKE SOMEONES DAMN PAPA	N				@TheWeirdKing719	1310405185668251648
1344392390921101312	2020-12-30T21:18:18.000Z	@TomLongYorkCo @Sundae_Gurl I typically change that to... the whore you rode in on.	N				@TomLongYorkCo	477826068
1344391931497951238	2020-12-30T21:16:28.000Z	@Gods_whore you give off E2! to me sorry🤨	N				@Gods	1196687121236533248
1344391532187553793	2020-12-30T21:14:53.000Z	all over again. “Look at you all used disgusting whore... I’m gonna have to punish you.”	N					1331376508326215681
1344390433900785669	2020-12-30T21:10:31.000Z	@6dollarhotdog Omf can you stop being a whore like a day pls like is that possible	Y	D			@6dollarhotdog	1301321866582294528
1344390304309374976	2020-12-30T21:10:00.000Z	@tinybunboy You need to learn to shut your pathetic little mouth instead of spouting useless nonsense. Nobody gives a shit what you have to say how about you just do what you were made to do? Bend over and let yourself be fucked and bred like a good pretty little whore.	Y	D			@tinybunboy	1278469417194655745
1344389940570951682	2020-12-30T21:08:34.000Z	@HawleyMO You are an ingrate. #HawleyResign #HawleyIsATraitor  you are an attention seeking WHORE. What compromising information do they have on you?	N				@HawleyMO	2352629311
1344389744759775232	2020-12-30T21:07:47.000Z	@po_the_ho boo you whore	Y	N			@po	1344254790050562054
1344389744638083072	2020-12-30T21:07:47.000Z	@JohnCornyn you keep saying regular folk have “suffered no financial loss?” Are you insane? Or just bought &amp; sold like a used up whore?	N				@JohnCornyn	13218102
1344389668436123653	2020-12-30T21:07:29.000Z	@etsolra ets wanna watch a moovie l8r you whore	N				@etsolra	1053260306426654720
1344389394988486658	2020-12-30T21:06:23.000Z	@math1886 YOU are the whore you cheating bitch	Y	N			@math1886	1332160907540041734
1344389295768039429	2020-12-30T21:06:00.000Z	@Scout_Finch If you say “and violated every tenant of physician responsibility” I will begin to think about letting this go. In the mean time I just think you’re a media whore	N				@Scout	14364337
1333198839231238147	2020-11-29T23:59:07.000Z	@_daegi GO AWAY YOU WHORE					@	1071455253546045441
1333198700819095552	2020-11-29T23:58:34.000Z	@cumshotdiana your a whore you can take it					@cumshotdiana	1333046110189879297
1333198680199991296	2020-11-29T23:58:29.000Z	@okitanoniisan You told them to suck it so that means something something whore					@okitanoniisan	1069826098547040256
1333198348023689219	2020-11-29T23:57:10.000Z	Call me a fucking whore gross idiot but dont call me theydie/gentlethem im literally begging you						1045423438842798082
1333198276678610945	2020-11-29T23:56:53.000Z	@AnCafeCafekko W h a t you nosy whore					@AnCafeCafekko	42361114
1333197772401553409	2020-11-29T23:54:53.000Z	@pokimanelol you little whore :)					@pokimanelol	2244953047
1333197543702814720	2020-11-29T23:53:58.000Z	"“You’re not good for anything else. Why not just let everyone see what a whore you are and give up now?”

“No I tried I tried so /hard/” Bakugou grits out—then shouts as Shinsou pushes a second finger in."						1234678321998262275
1333197338198863874	2020-11-29T23:53:09.000Z	@Dejsopretty_ Fuck you whore I’m screaming 😭💀					@Dejsopretty	1304259958507286530
1333197325192335360	2020-11-29T23:53:06.000Z	@sparkletitty666 BOO YOU WHORE	Y	Y	Y	@sparkletitty666	@sparkletitty666	1267500407925981184
1333196841299685383	2020-11-29T23:51:11.000Z	@KamalaHarris Uh fuck off...also you need to add Whore to your Twitter profile.					@KamalaHarris	30354991
1333194739479359488	2020-11-29T23:42:50.000Z	@ICARUSL0T @KISSYL0T FLO YOU WHORE					@ICARUSL0T	1291575522401619969
1333194532532277248	2020-11-29T23:42:00.000Z	@jakepaul @AudieAttar Calm down kid you ain’t shit but a attention whore					@jakepaul	581301629
1333194393663246336	2020-11-29T23:41:27.000Z	@yuriiislut so you wanna b fucked like a dirty whore then ?					@yuriiislut	1162795537155928064
1333193767483027456	2020-11-29T23:38:58.000Z	@StSabinaSteele The perfect girl next door is the whore next door for you. You just have to bring it out of her.					@StSabinaSteele	1308210457552003079
1333193632988459008	2020-11-29T23:38:26.000Z	@_shybabee You just got off text me whore					@	486253394
1333193631243624455	2020-11-29T23:38:25.000Z	@SenatorLoeffler God just told me to tell you to get his words out of your whore mouth.					@SenatorLoeffler	1200451909406121984
1333192136385327109	2020-11-29T23:32:29.000Z	"T: Oh trust me you won’t that’s more time for me
Q: You are fucked up in the head like something really off up er
Navya rolls down the window and ask if I needed her to put Kinzlee in the car
T: You brought that whore wichu
N: Fuck you bitchhhhh (gif) https://t.co/ssr4pSuTuA"						1320219164695535616
1333191754959511556	2020-11-29T23:30:58.000Z	@LaylaaAishaa LMAOOOOO I knew you saw it miss u whore 😘					@LaylaaAishaa	2219055812
1333191660239540225	2020-11-29T23:30:35.000Z	@refereecpa @owain_wn14 @lowphive @gleestiles @ThomB01 @HuffmanForNC Right i guess it comes down to are you going to whore yourself to the rich and ignore our laughable standard of living... for you i suppose that answer is yes. The working class will have no second thoughts taking more money from the rich to raise said standard.					@refereecpa	78385747
1333191289584619524	2020-11-29T23:29:07.000Z	"@TheNerdSpider
Whore
love you though
But still https://t.co/soVUMuIleE"					@TheNerdSpider	1279186027245113349
1333191049401929738	2020-11-29T23:28:10.000Z	@partywitkariii @chinx_102 @xchrriss Dam @chinx_102 she called you a whore					@partywitkariii	1300159500792590340
1333190966048649217	2020-11-29T23:27:50.000Z	@shanelleway Well happy birthday whore sense you don’t know how to answer the phone					@shanelleway	200295488
1333190831633731586	2020-11-29T23:27:18.000Z	@spacecaramei @ ME NEXT TIME YOU WHORE					@spacecaramei	1256625726138318850
1333190754446045187	2020-11-29T23:27:00.000Z	@JoeBiden You’re a senile pedophile and your Vice President candidate is a whore!					@JoeBiden	939091
1333190397980381184	2020-11-29T23:25:35.000Z	@emmittrocha2 You whore I love it					@emmittrocha2	954509335681433600
1333190338245226498	2020-11-29T23:25:20.000Z	@_trending17 You a whore man🤣🤣🤣🤣🤣🤣					@	726774137155366913
1333190316799578112	2020-11-29T23:25:15.000Z	@HSFine_Line i love you you fucking whore					@HSFine	1323337141204717569
1333190125279318017	2020-11-29T23:24:29.000Z	@marcorubio ...whore in her father's house: so shalt thou put evil away from among you." (Deuteronomy 22: 20-21)					@marcorubio	15745368
1333189744935755776	2020-11-29T23:22:59.000Z	@besidjutsu YOU WHORE					@besidjutsu	1259836096252456960
1333189702673948673	2020-11-29T23:22:49.000Z	"@BrokenDivinitys What was that you cum whore?

I didn't hear you that well"					@BrokenDivinitys	1311127195402764288
1333189509752602624	2020-11-29T23:22:03.000Z	@Priyanka_Kamia @KimKardashian She’s a pathetic excuse of a woman. Attention whore like her mom. How do you think they got so rich? By the people who are suffering now but contributed to their wealth. Buying their crap watching their shows. They continue to bring kids into the world out of wedlock seriously					@Priyanka	955863981872308224
1333189323508883462	2020-11-29T23:21:18.000Z	@BrokenDivinitys Whatever you say you cum addicted whore.					@BrokenDivinitys	1311127195402764288
1333189310015819777	2020-11-29T23:21:15.000Z	@santiboca24 i love you whore					@santiboca24	7.3628E+17
1333188715531874307	2020-11-29T23:18:53.000Z	@YesThatVCharles Don’t make this about you. It is about Rose being a damn whore					@YesThatVCharles	901925739532087296
1333188267043397633	2020-11-29T23:17:06.000Z	"@mjksgf NOT ONLY YOU’RE AN ATTENTION WHORE BUT YOU ALSO CAN’T BE SINCERE WITH YOUR MOOTS? i-
bitch bye"					@mjksgf	1303337445946261508
1333187785843347456	2020-11-29T23:15:12.000Z	@steviee_raee ong we dying together bc I can’t live w/o you whore					@steviee	625094257
1333187545295892480	2020-11-29T23:14:14.000Z	"@p3achbae lwj: no wonder you’re so desperate. clearly you haven’t been drained properly in a long time. it seems like i’ll have to empty you out more than once

wwx: [whore noises]

lwj: i usually don’t do this but this is clearly an advanced case and for your own safety i must- *unzips*"					@p3achbae	1288032638079586305
1333187336205709312	2020-11-29T23:13:25.000Z	@BernadetteRSmi1 @washingtonpost If it makes you feel safe and cozy where one but to let you know it will not protect you... cdc came out yesterday and stated 87% of all new cases are from people who whore mask!!!					@BernadetteRSmi1	822634606734307328
1333186794997866496	2020-11-29T23:11:15.000Z	@simp_for2d_men Grind against my shaft like the whore you are...~ and oh when I get my hands on you... I'm going to touch and use you......everywhere~					@simp	1162924063930617857
1333186418139570176	2020-11-29T23:09:46.000Z	@icarusgillespie but that’s my nickname anyway you whore choose a new one					@icarusgillespie	1189723703917056003
1333186122990702593	2020-11-29T23:08:35.000Z	@KamalaHarris Tough questions - Got anymore in that bribe? Will Hunter have a job?   Facts - you’re a whore who kneels her way to the top! Truth - y’all cheated &amp; will be caught.    No matter what.					@KamalaHarris	30354991
1333186014752477188	2020-11-29T23:08:09.000Z	@Minnie001717 Michelle I’m far from a bum love and YKT ‼️😂 you call Everbody bum like your life so I’m tack WHORE					@Minnie001717	1231314244571979776
1333185858350903298	2020-11-29T23:07:32.000Z	@cumshotdiana You ain’t ugly. Shut you’re whore mouth. You’re hot asf with or without my dick.					@cumshotdiana	1333046110189879297
1333185363137994753	2020-11-29T23:05:34.000Z	@tclemons469 @Sam2Houston @marklevinshow The pedophile and theif you voted for is trash...  Kamala is a whore who slept her way to the White House.					@tclemons469	1335268100
1333183882217353218	2020-11-29T22:59:41.000Z	"@MiiquTea hockney get fucking wrecked with 3 cocks up your ass and one in your mouth

take them like the whore you are"					@MiiquTea	1330907685479473165
1322327340505047043	2020-10-30T23:59:40.000Z	"Our House of Whore-Her starts at 11pm EST Saturday night.

We'd never leave you hanging on Halloween. 🎃🙌

https://t.co/mwRch8Nwq1"						520936149
1322327281298190336	2020-10-30T23:59:26.000Z	@LewdEugen “Care to go for round two then?~ The others might just come by tonight if they hear you moaning like a total whore~”					@LewdEugen	1134847606235025408
1322327239594254338	2020-10-30T23:59:16.000Z	@sudsy911 Whore is what you meant					@sudsy911	2805795426
1322326948866150400	2020-10-30T23:58:06.000Z	1:Die in a ditch you whore						1237836813361975297
1322326701297356800	2020-10-30T23:57:07.000Z	@tomlarmstrong76 So when you get down and nobody wants to fuck with im always around to shoot the shit. Also don't let that fuckin whore that treated you like shit get you down. Shes the fuckin problem not you. There's like 8 women to every man statically there's several of them out there for u					@tomlarmstrong76	1458972523
1322326368034590722	2020-10-30T23:55:48.000Z	@Marauder_Whore "oohhh I like you yesssss"					@Marauder	1305730617259114496
1322326274103271424	2020-10-30T23:55:26.000Z	@Gods_whore boy HOW TF DO YOU DO THAT THREE TIMES					@Gods	1196687121236533248
1322326012902793216	2020-10-30T23:54:23.000Z	@Marauder_Whore "Would you like hugging these little fluffies?" https://t.co/jti6VxEiTf					@Marauder	1305730617259114496
1322325228744302592	2020-10-30T23:51:16.000Z	@Kbriffaaa @yeanahfrgubi Stop you whore					@Kbriffaaa	2156901564
1322324850392879104	2020-10-30T23:49:46.000Z	@mollyphant @blander_whore @SnakeySmut Thank you so much! I'm very flattered					@mollyphant	4831051624
1322324824203558912	2020-10-30T23:49:40.000Z	@PrivateLifePati you’re a coke whore					@PrivateLifePati	1048025609442676737
1322324739889811458	2020-10-30T23:49:20.000Z	"@Marauder_Whore Jay smiled and grinned as well.

""One more. Would you like to take this hung cutie for a swing?~"""					@Marauder	1305730617259114496
1322324423630852096	2020-10-30T23:48:04.000Z	@AzureSkySM @eiryhunter you hold that pencil like a whore					@AzureSkySM	2973840045
1322324330487959555	2020-10-30T23:47:42.000Z	@ThisKafirsAwake No it's not. Where in the original Koran is this nonsense written. Nowhere. It's something horny men made up. Women don't need to hide under a black garbage bag just because you think with your dick. You don't respect women. You're the whore.					@ThisKafirsAwake	1298591032410542081
1322323700348297219	2020-10-30T23:45:12.000Z	"responsible for anything.
Are you kidding me?
You are a interloper a man who has no faith to Ireland or America your a vote Whore who thinks if he can just change #America he can change the world.
Theres a reason you think that America is the greatest economicmilitaryCultural"						1211621550979305472
1322323163032768513	2020-10-30T23:43:04.000Z	@chin52557669 LOL i guess you got a point there. BUT no one hits this with out a lot to consider. I am a model not a slut or whore there is a difference =)					@chin52557669	3300121451
1322323012922839040	2020-10-30T23:42:28.000Z	@TrumpJew @hrenee80 C you next Tuesday whore					@TrumpJew	131922924
1322322815450816513	2020-10-30T23:41:41.000Z	@LindseyGrahamSC He’s declared bankruptcy 7 times you spineless whore					@LindseyGrahamSC	432895323
1322322805682245632	2020-10-30T23:41:39.000Z	@KathrynDennis t u fuckin kidding me you piece of shit! U know that Jason is not cheating on @cameraneubanks. Guess this is your way of trying to stay on the show! By the way you look like shit u fuckin whore!	Y	Y	Y	@KathrynDennis	@KathrynDennis	139556111
1322321742837284865	2020-10-30T23:37:25.000Z	@KMMHSLOT You slept at 1 am so much for staying up whore					@KMMHSLOT	1274364873401610240
1322321463693639681	2020-10-30T23:36:19.000Z	@_MiniShine @Bbytesfaye Oh word we wanna play like that? We were suppose to hang at 1 that day but you were being a whore and couldn’t hang until 6 https://t.co/k00IuumROa					@	242105778
1322321104061390848	2020-10-30T23:34:53.000Z	@Marauder_Whore "how do you feel if you stepped on someone on the dick with your high heel boots milady"					@Marauder	1305730617259114496
1322320237916614657	2020-10-30T23:31:26.000Z	@Sickofthesunn be the whore you want to be					@Sickofthesunn	810214894582845440
1322320135131172865	2020-10-30T23:31:02.000Z	@ADOREXWALLS @RAINBXRRYMALFOY what did we ever do to you bitch ass whore					@ADOREXWALLS	1226572759075033088
1322320006869356550	2020-10-30T23:30:31.000Z	@Super70sSports Did you finish Whore Ads already?					@Super70sSports	2259809232
1322319592086261761	2020-10-30T23:28:52.000Z	@mattgaetz The irony of this tweet is you are such a media whore you would run not walk to a camera if @CNN would have you. Like FL-1 they don’t want you either.					@mattgaetz	58579942
1322319582758084608	2020-10-30T23:28:50.000Z	"@7DaySadako I'm afraid that's my line. Your body better be more useful than the last whore I ended.

Remeber. You are here to be used and you must earn your place as my toy. So put on a sexy outfit for me and and crawl into my DoMains like a good bitch if you even expect me to touch you"					@7DaySadako	1243489385762271232
1322319560037588994	2020-10-30T23:28:45.000Z	@FootQue52433722 Excuse me I said "Dirty" whore not filthy whore. I'm not an animal. Thank you for service sergeant.					@FootQue52433722	1318330117228089344
1322319259624615937	2020-10-30T23:27:33.000Z	@GothamCityGoon 12 hours? you was def being a whore😂					@GothamCityGoon	1295725202244923395
1322318562720124933	2020-10-30T23:24:47.000Z	@jacksxotwod Where you going tonight whore 🙄					@jacksxotwod	340980047
1322318497200934912	2020-10-30T23:24:31.000Z	@FootQue52433722 Open your DM's you filthy fucking whore					@FootQue52433722	1318330117228089344
1322318186868436992	2020-10-30T23:23:17.000Z	@real_ambush @RealGodzly shut the fuck up you dumb little whore					@real	1144103883913887744
1322317996006649856	2020-10-30T23:22:32.000Z	@Franklin_Graham @BillyGraham You would though celebrity whore.					@Franklin	44945327
1322317726442872833	2020-10-30T23:21:28.000Z	@ToxicDick_ @jojoqueenn25 @_Hercreator @lindachristinne @UglyDuckling_98 @sonywaddles @laaydybug @thesweetstbunny You’re a fucken Whore how tf are you on mine but I’m not on yours					@ToxicDick	714609259938316288
1322317475082481664	2020-10-30T23:20:28.000Z	Also bitch who told you to put that on. You dirty WHORE. Fuk me						1081619445733195777
1322317271306391553	2020-10-30T23:19:39.000Z	@HandOfAzazael Bro there is absolutely nothing wrong with being sexual with your partner even if it’s at a distance through photos. In no way does that make you a whore even if you like a dude/girl. Meeting the needs of mutual attraction is normal shit.					@HandOfAzazael	2510590535
1322317212330414081	2020-10-30T23:19:25.000Z	@AEinstein73 honestly if I see a room for conversation I'm all for it but you gonna come at me saying she's an attention whore or that I am? what on earth would compel me to tolerate that shit? I'm sexist for literally saying leave these comments to the ones who tried to jail her? nah 😂 fr					@AEinstein73	1259677188024082437
1322317113206472706	2020-10-30T23:19:01.000Z	@OleSkeezeBag what you doing tomorrow whore?					@OleSkeezeBag	1208962523535425536
1322316931014283264	2020-10-30T23:18:18.000Z	@DezireeDaDon Stupid whore 🙄 that’s why you blocked 😅					@DezireeDaDon	1292561586834612224
1322316778056331266	2020-10-30T23:17:42.000Z	"@satakaraxd @kokozuki Having negative wr being ""hardstuck"" are those reasons for being as poisonus as you are?

There arent ANY reasons for you to wish someone cancer or call someone a whore

You did that on PUBLIC and you still try to defend yourself"					@satakaraxd	1147957103224590337
1322316739179433987	2020-10-30T23:17:32.000Z	@inosukeboobs @kisumiikissme you’re a whore.					@inosukeboobs	1134701683458445312
1322316697773187072	2020-10-30T23:17:22.000Z	@_SapphireStar @miIabo you not being a whore makes total sense with capricorn mars and venus. impulsiveness kinda rules the other placements but capricorn is like ultimate repression and restriction and control so thats why youre not getting fucked by the dumpster! your slay.					@	1214704889705709569
1322316205751898114	2020-10-30T23:15:25.000Z	@CastrellonMark @vgoooch Fuck you whore! You went too far					@CastrellonMark	1220406696
1322315810564567041	2020-10-30T23:13:51.000Z	@SusanHilgenfeld @GeorgePapa19 LOL I have looked into it.   You fat whore.	Y	Y	Y	@SusanHilgenfeld	@SusanHilgenfeld	700272708
1311093391376158720	2020-09-29T23:59:58.000Z	@ohwelli_ @whoisaddison Do you consider ur self a whore?					@ohwelli	2448448298
1311093276737503233	2020-09-29T23:59:30.000Z	"@KamalaHarris What are we going to learn?
That you are rigging the ballots?
That it's going to be some whore  if the cheat works?
That you still can't tell the truth?
We already know these things go back to your hole and try better."					@KamalaHarris	30354991
1311092951242735618	2020-09-29T23:58:13.000Z	“And then maybe a blue one that says MY MOM IS AN ANGEL YOU WHORE?”						85383361
1311092674829656064	2020-09-29T23:57:07.000Z	"@HotMama83163983 @JennaJones0123 @B_BNKS @JoeBiden ""so true""

You like men who call you a whore and treat you like sh*t?  So true. https://t.co/ppZe58BSUM"					@HotMama83163983	1205995356787367936
1311092629120208898	2020-09-29T23:56:56.000Z	@kaganpekcan @XPhotonicsX @301_AD Is that all you got son of a whore?					@kaganpekcan	367973183
1311092475512193030	2020-09-29T23:56:19.000Z	@minjidyke You're still here att whore? Go to school you need					@minjidyke	1306389283541078016
1311092243546222594	2020-09-29T23:55:24.000Z	@saucespecialist DNDJDNDJDNFJ he doesn’t exude whore energies but you love him So Much					@saucespecialist	809518964544073729
1311092011114651648	2020-09-29T23:54:29.000Z	@elohorr__ I thought you were a whore?🤔					@elohorr	713150965352964098
1311091179581255686	2020-09-29T23:51:10.000Z	@senrobportman @realDonaldTrump You think the way a whore does					@senrobportman	18915145
1311091008164298752	2020-09-29T23:50:29.000Z	disgusting fame whore attention seeker gold digger pale excuse of a man. fuck you.						925042143311298561
1311090739246518272	2020-09-29T23:49:25.000Z	@_daledondale Oh come on...I was just pointing out the fact that you're a whore; now scurry back whoreville.					@	1029743236624130053
1311090694082174977	2020-09-29T23:49:15.000Z	@ShayelynnMateer Can you tell this to all the people that called me a whore after my assault when I was so drunk I blacked out after 🤔					@ShayelynnMateer	871833362
1311090117000470528	2020-09-29T23:46:57.000Z	@ShyCybertruck @Twitter Yeah like I refer to my dad as a label whore all the time. It’s good to have you back.					@ShyCybertruck	1268392969700290560
1311089875769126913	2020-09-29T23:45:59.000Z	@JUthergi @DanielleCandela @BillKristol @melvisr1 Did you know his grandfather ran Whore houses?  The mining town of Monte Cristo in my home county of Snohomish Washington State.					@JUthergi	1188904519071162369
1311089520226562050	2020-09-29T23:44:35.000Z	@MariahCarey @audible_com I don’t think you’re a whore. I believe you loved the men you slept with. I am promiscuous myself and really think it would hurt women like you to know how many females and males I’ve been with in my 44 years. So we will agree that our reputations are not compatible and I’ve vani					@MariahCarey	19248106
1311089395445960705	2020-09-29T23:44:05.000Z	@enchjillada You didn't have to call me a whore like that to all of your followers					@enchjillada	2945862696
1311089297047670784	2020-09-29T23:43:41.000Z	@lutfiyahkn @_sully97 Mr Whore can you help me out here pls ?					@lutfiyahkn	1282004654977683456
1311088782934933504	2020-09-29T23:41:39.000Z	@SenHenryCIay no you’re just a whore					@SenHenryCIay	760387761656377344
1311088466466426880	2020-09-29T23:40:23.000Z	@HillaryClinton So when are you paying Haiti back whore?					@HillaryClinton	1339835893
1311088461475184640	2020-09-29T23:40:22.000Z	@SenHenryCIay you’re a whore					@SenHenryCIay	760387761656377344
1311088423189590018	2020-09-29T23:40:13.000Z	@thatneighborlex you just proved you're a WHORE					@thatneighborlex	981179540205723648
1311088325089013761	2020-09-29T23:39:50.000Z	@Ilhan Doesn't sharia law call for you to be flogged for not covering your whore face?!					@Ilhan	1082334352711790593
1311087646983229448	2020-09-29T23:37:08.000Z	@Sadist_switch Which name? Loyal whore or sadist switch? Any specific plush you love? I have tons ❤️					@Sadist	948658888169086976
1311087470419652608	2020-09-29T23:36:26.000Z	@sinlainenomahou DID YOU CALL ME A WHORE					@sinlainenomahou	1053363722851377152
1311087009188859904	2020-09-29T23:34:36.000Z	"@kayleighmcenany You mean except the 300+days you spend golfing while your country burns?
Shut up you trump whore"					@kayleighmcenany	259001548
1311086711087263745	2020-09-29T23:33:25.000Z	@JoeBiden Motherfucker! You've been in politics for over 40 yrs you are nothing but a welfare whore living your life off tax payers dollars.					@JoeBiden	939091
1311085943789629444	2020-09-29T23:30:22.000Z	@PalmerReport Whore not whole. Damn you autocorrect.					@PalmerReport	925504190
1311085647445266432	2020-09-29T23:29:11.000Z	"@AJJEAEO First impression: i thought you wrte a guy
Your nickname in my head: whore
Closeness rating (1-10): 7
Do I like you: yeah
You are my: hentai inspector https://t.co/xgwRHfFYU3"					@AJJEAEO	865379384823136256
1311085345547616256	2020-09-29T23:27:59.000Z	@pt35mm @BostonGlobe This is why I’m not a Democrat anymore. They cheat and still lose. I’m just not a fan of losers. I’ll be refreshing like a whore in heat for you excuse on this one https://t.co/tIzzplWayT					@pt35mm	69196843
1311085306372857856	2020-09-29T23:27:50.000Z	"@SaraJBenincasa Though I love cinnamon and prefer Saigon cinnamon preferably roasted...

Why are you only giving me one? This isn't polite. I am a spice whore.

Okay it's a toss up. Herbs de Provence or cinnamon. Both are universal for me to use. So this is tough. 😬"					@SaraJBenincasa	15194242
1311085179432206338	2020-09-29T23:27:20.000Z	"@Thatjolanikid “Why did you become a whore?”
“Zoom lectures were too slow”"					@Thatjolanikid	2608488120
1311085167784669184	2020-09-29T23:27:17.000Z	Bitches be like "ill give you like 10 dollars in exchange" as if I'm a whore						1192215045205364736
1311084944513552384	2020-09-29T23:26:24.000Z	@leeandrew31 You've always had whore followers thinking they're a celeb. Twitter is just a laff. Not as good as the old days but still a few nutters on here to make you laugh.					@leeandrew31	314240415
1311084792725692416	2020-09-29T23:25:48.000Z	@fmtovvns @OneBrapPlease boooo you whore					@fmtovvns	1217610720847765504
1311084570184503297	2020-09-29T23:24:54.000Z	@_daledondale I knew you were a whore. Thanks for the confirmation.					@	1029743236624130053
1311084071859224577	2020-09-29T23:22:56.000Z	@TsViViFierce @copkiller1999 @272hz @lmHardlyA1 You got no morals you are literally a whore because you are a failure and can't do anything to help yourself plus how are people even paying you? Go on a diet you fat asf imma puke.					@TsViViFierce	1161308256377167872
1311083972999421953	2020-09-29T23:22:32.000Z	@ericgarcetti you and your jackass gov. @GavinNewsom made your bed now lay in it.  It is not the Federal govt's job to bail you ass clowns out because you blow your funds like a cheap whore.  As far as I am concerned we should wall Ca. off and you fend for your damn selves.					@ericgarcetti	17358750
1311083179202277384	2020-09-29T23:19:23.000Z	@L1thiumSnow Alsgdksl white man's whore refers to POC😂 (but I guess in meme sense you can still say it)					@L1thiumSnow	1158090076691283968
1311083128900005888	2020-09-29T23:19:11.000Z	@realDonaldTrump Abe Lincoln paid more than you in taxes during the 1800’s who are you fooling your done so is your whore daughter enjoy jail					@realDonaldTrump	25073877
1311082405210529796	2020-09-29T23:16:18.000Z	@jupiterscotty @TMZ @JustJared Won't be by you I wear it better than your whore of a mother					@jupiterscotty	1310729038466613248
1311082175245279233	2020-09-29T23:15:23.000Z	@MatthewJshow @realDonaldTrump You’re still an idiot. Fluffing the boss at every turn doesn’t make him respect you it just makes you a low level wannabe whore.					@MatthewJshow	762932101
1311081890972131328	2020-09-29T23:14:16.000Z	@swamp_whore AS YOU SHOULD!!! He’s mildly sexy though why lie https://t.co/ynw91UyJHO					@swamp	3308232608
1311081783086198790	2020-09-29T23:13:50.000Z	@dwilk1997 @PopstarKeita WHORE HOW DARE YOU 1UP ME 😤😤					@dwilk1997	1633417117
1311081390138679297	2020-09-29T23:12:16.000Z	@blgtylr Wait. Am I the Whore of Babylon or is that you?					@blgtylr	354570003
1311081199742394368	2020-09-29T23:11:31.000Z	"@Grainskye WHORE 😂

Joe is intellectual and would tell you sweet nonsense 😭"					@Grainskye	1272400389258829824
1311081125914185728	2020-09-29T23:11:13.000Z	@IsaiahGraay Oh I’ll whore you out. Bend you over on the bench press and fuck you into the ground.					@IsaiahGraay	1128436426482143234
1311080772632104960	2020-09-29T23:09:49.000Z	@Slickaroon Fuck you whore 😤😔	Y	Y	Y	@Slickaroon	@Slickaroon	2841887430
1299858303363813376	2020-08-29T23:55:44.000Z	@SpicyPurpleAura @FennedoxZiggy Them calling you a whore for having an OF like yikes.					@SpicyPurpleAura	1135418434630574082
1299858038443081729	2020-08-29T23:54:41.000Z	@angelhotch no you’re a pussy ass whore	Y	Y	Y	@angelhotch	@angelhotch	1005243258145005568
1299856896975949829	2020-08-29T23:50:09.000Z	@Rebel_whore “I’m always here for you.”					@Rebel	1258110086737727488
1299856073092812800	2020-08-29T23:46:52.000Z	@ZoLoSMACKED Shut up whore lol I’ll text you 😂					@ZoLoSMACKED	1367627930
1299854646043967488	2020-08-29T23:41:12.000Z	@SpicedAnnie YOU STUCK YOUR FINGER BETWEEN MY BABY BACK RIBBIES WHORE					@SpicedAnnie	16669299
1299854584123453440	2020-08-29T23:40:57.000Z	@hotchsman dont bark at me you whore					@hotchsman	1273684573507817473
1299854452279697408	2020-08-29T23:40:26.000Z	@rxoymar When i call you bitch slut whore because you’re my best friend&gt;&gt;&gt;&gt;&gt;&gt;&gt;&gt;&gt;&gt; https://t.co/NVpXjHhnPI					@rxoymar	1022145785083953152
1299853635774550016	2020-08-29T23:37:11.000Z	@KamalaHarris You are a whore					@KamalaHarris	30354991
1299853033476689920	2020-08-29T23:34:47.000Z	@enyashello @bitchwegeekin @CooledSneaks @rinadontplay why because god forbid a woman other than you have the ability to read or be interested in books because their header on Twitter is a YouTuber looking at the word whore					@enyashello	46901908
1299852445636587520	2020-08-29T23:32:27.000Z	@SauceBhris you’re a whore regardless☹️					@SauceBhris	919092448407715840
1299851748295815168	2020-08-29T23:29:41.000Z	@Ponderosa1415 @ryangrim @daveweigel @AlexBMorse I’m sure you’re just as ignorant about the corporate whore he’s trying to unseat too. But hate away Clown					@Ponderosa1415	1198195258355523584
1299851712883163136	2020-08-29T23:29:33.000Z	@JamesFallows You’re such  a whore.trump.					@JamesFallows	24789175
1299851570327281664	2020-08-29T23:28:59.000Z	@minervaaxo chileeeeeeeee- could like not ruin our vibe love? i dare you to attack vivi one more time i fucking dare you ;). sissss- sis chill yo tits aint you got better shit to do you whore? go fuck yourself boo &lt;3 nobody wants you here LMFAO					@minervaaxo	1299821603413467138
1299851492325838854	2020-08-29T23:28:40.000Z	@_venice_whore_ @wetgaga From which perspective I think its a very great pop album. It has everything that you can expect from a pop/electronic album.					@	1246360528085307393
1299851482339176449	2020-08-29T23:28:38.000Z	@sirswordtwts @ThatIsNoice Fuck you whore					@sirswordtwts	1138440902647504899
1299851391918374913	2020-08-29T23:28:16.000Z	"@LizzyHedgehog ""SCREENSHOT WHORE"" IS A REALLY GOOD TERM TBH. I SHOULD START USING IT.

ACTIONS ARE LOUDER THAN WORDS AND *YOUR* ACTIONS ARE LOUDER THAN ANY SCREENSHOT. FRANKLY IF PRETZEL SERIOUSLY TOLD YOU TO FUCK OFF YOU SERIOUSLY FUCKED UP."					@LizzyHedgehog	606822932
1299851119661928449	2020-08-29T23:27:11.000Z	"@fellay_o_fish @iamschuyler97 @DaltonDiscount @AlFinlandi @OnenessChristi1 @GJorgeMedina @SimonReye You have no place to talk. You’re a dead religionist. Your religion is a dead Roman ritualistic man-made religious system. The RC Church is the whore of Babylon.

As a one-God Christian I have Jesus Christ as my saviour &amp; his Holy Spirit resides within me. I have life. Bye..."					@fellay	1067629204295032832
1299851109058527233	2020-08-29T23:27:09.000Z	@wemadeitlove @lisia_iza_whore THANK YOU LIAM					@wemadeitlove	1206326779926986752
1299850985557368833	2020-08-29T23:26:39.000Z	@santana_alarid My favorite is always the transition from “you’re a whore” back to “hey”					@santana	459819399
1299850447381987328	2020-08-29T23:24:31.000Z	"@VaskoZeKasko YOU FUCKING WHORE. YOU KILLED MY WIFE BECAUSE ""YOU JUST HAD TO BE BORN""
FUCK YOU DUDE"					@VaskoZeKasko	4026313181
1299850420467232768	2020-08-29T23:24:24.000Z	@martialswhore martialswhore suck your self you dusty yute i’ve got problems with this martial whore					@martialswhore	1098955147626065920
1299850376972242946	2020-08-29T23:24:14.000Z	@MoneyMikeAshley Damn you for a vile whore					@MoneyMikeAshley	49411634
1299850149418631169	2020-08-29T23:23:20.000Z	@SpeakerPelosi GET off my feed you sick old fucking whore	Y	Y	Y	@SpeakerPelosi	@SpeakerPelosi	15764644
1299849765123960832	2020-08-29T23:21:48.000Z	@NotASinner16 Excuse you?? You seem like the whore and not me					@NotASinner16	1091822382724067329
1299849523125202950	2020-08-29T23:20:51.000Z	@NotoriousJay0 @ her you whore.					@NotoriousJay0	4758215765
1299849350344998912	2020-08-29T23:20:09.000Z	@tpwkloubear thank you whore !! &lt;33 i hid your fancam					@tpwkloubear	1144026644845387777
1299849247089733633	2020-08-29T23:19:45.000Z	@Rebel_whore “Oh really? Well you don’t have to worry about that now.”					@Rebel	1258110086737727488
1299848984375234562	2020-08-29T23:18:42.000Z	@euphoric_whore YOU DO					@euphoric	1266528958545383424
1299848814631804928	2020-08-29T23:18:02.000Z	@Think4Urself20 @Aimdoesit @theestallion That’s not what whore means at all you stupid idiot.					@Think4Urself20	1041004329799483393
1299848065373941761	2020-08-29T23:15:03.000Z	@love_u_whore @blindingrep Girl...you better apologize before she comes for you					@love	1095049621364187137
1299847900663615494	2020-08-29T23:14:24.000Z	@TheJudasAmongU Who called you a whore I just wanna talk					@TheJudasAmongU	985728863966777344
1299847821202518018	2020-08-29T23:14:05.000Z	@Vvajk I think it was 7-8th grade because I was on a middle school dance team... and my step mom was sure to tell me it looked like I had “whore makeup” on. So you know don’t say that to your child 🤷🏻‍♀️					@Vvajk	37888012
1299847708321091584	2020-08-29T23:13:38.000Z	@RichardsonKegan Okay @ me next time asshole. But do you chug tequila like a whore swallowing cock?					@RichardsonKegan	3146362814
1299846923436937217	2020-08-29T23:10:31.000Z	@DeAnna4Congress Are you fucking serious? Not trying to start anything? Than why tweet this garbage. He kept his illness quiet because he's not an attention whore like you. You're truly a cold hearted b*tch. Go fuck yourself.					@DeAnna4Congress	16740433
1299846094382346241	2020-08-29T23:07:13.000Z	@EJ_creepypasta_ Since when are you a whore?					@EJ	1290665735564464128
1299845766928830470	2020-08-29T23:05:55.000Z	@cnnbrk  I keep hearing CNN reporters use the word "acknowledge" in Trump context. U CNN the supposedly Ethical Institution LOSE the right to use the word Acknowledge b/c U dont acknowledge YOUR HUGE instrumental Role in Getting Trump elected. YOU were a ratings whore in '16.					@cnnbrk	428333
1299845577090445312	2020-08-29T23:05:10.000Z	@abow22 Oh yea show me those thighs you naughty whore https://t.co/HbG61lcB4v					@abow22	966827816204623873
1299845250417123332	2020-08-29T23:03:52.000Z	@boysburna No you whore					@boysburna	1261662399976873984
1299845211556806659	2020-08-29T23:03:43.000Z	@CNN I keep hearing CNN reporters use the word "acknowledge" in Trump context. U CNN the supposedly Ethical Institution LOSE the right to use the word Acknowledge Because U dont acknowledge UR HUGE instrumental Role in Getting TRump elected. YOU were a ratings whore in 2016.					@CNN	759251
1299844702473256961	2020-08-29T23:01:41.000Z	@Naughtyinlaw Mmmm you might only be able to actually take good girl but I pull you down to whore.					@Naughtyinlaw	1299815860387876864
1299844196874977280	2020-08-29T22:59:41.000Z	@HoopsCoach44 @5ForFlying You shut your whore mouth!					@HoopsCoach44	22096417
1299843811997220864	2020-08-29T22:58:09.000Z	"@NatalieisBlue Paula White-Cain is Trump’s church lady. She speaks in phone toungs and makes millions off blue haired grannies etc.
it’s like the biblical whore riding the beast. What can I say ?
Religion has been tangled up with politics forever. How do you think you get a King James Bible ? https://t.co/Kd8lUUgMLN"					@NatalieisBlue	1000137526353498113
1288625167485349891	2020-07-29T23:59:16.000Z	@realDonaldTrump Fuck you stupid Putin whore					@realDonaldTrump	25073877
1288624733731393536	2020-07-29T23:57:32.000Z	@ApollonOracle no i love you again. youre not a whore&lt;3					@ApollonOracle	1283155338200588288
1288624168918036480	2020-07-29T23:55:18.000Z	It makes me sooo needlessly angry but it's one of my few pet peeves so fuck you whore https://t.co/XyMz8VAXnV						855430773486342146
1288623786934382595	2020-07-29T23:53:46.000Z	@senatemajldr Naff off liar.  You gddamn know it's you letting relief run dry you sorry son of a Kremlin whore.					@senatemajldr	1249982359
1288623136540446732	2020-07-29T23:51:11.000Z	@HighSkyGirl @SinisterSeduct2 @BrutalityShown @NotTheEST @IconicSmokeshow My mom is not a whore thank you Io.					@HighSkyGirl	936339208893075456
1288623063613964291	2020-07-29T23:50:54.000Z	@KlSSYCHAN @love4lwt @izzyasflol OI IM NOT A WHORE YOURE THE WHORE YOU WHORE BOOOOOOO					@KlSSYCHAN	1151762646460510208
1288623049529610242	2020-07-29T23:50:51.000Z	@SinisterSeduct2 @BrutalityShown @TheDamnGlampire @NotTheEST @IconicSmokeshow What do you mean goodbye whore?					@SinisterSeduct2	1171607953985724423
1288623007183843338	2020-07-29T23:50:41.000Z	@andthesigfigs after LAPIN stopped texting me back 🤧🤧 sorry i’m a whore it’s not my fault. cumulous is a rebound you actually fall for.					@andthesigfigs	1285734809864597504
1288622873989398528	2020-07-29T23:50:09.000Z	@realDonaldTrump You're nothing but Putin's whore!					@realDonaldTrump	25073877
1288622699565244417	2020-07-29T23:49:27.000Z	"@destinyw002 Ungrateful ass whore

*If you're being sarcastic then this is a joke*"					@destinyw002	1144709614178619398
1288622538856202240	2020-07-29T23:48:49.000Z	@drewski611 You know...why don’t you go back to your home on whore island					@drewski611	615464146
1288622487379611649	2020-07-29T23:48:37.000Z	@liddell_olivia Wow your srsly bring my issues into this and to think I was gonna buy you a drink on tuesday. Think again whore	Y	Y	Y	@liddell	@liddell	1131252377405788161
1288622441540067328	2020-07-29T23:48:26.000Z	"@Blorchy1 @TroubleMacher @VaushV @Timcast Calm down you drama whore

1) They aren't trying to ""destroy western civilization""

2) The article makes it clear there is a difference between body cameras which are designed to film individual interactions of officers and aren't public by default and mass surveillance."					@Blorchy1	2539924328
1288622377979588608	2020-07-29T23:48:11.000Z	@KlSSYCHAN @love4lwt @izzyasflol NO YOU WHORE					@KlSSYCHAN	1151762646460510208
1288621919030272000	2020-07-29T23:46:21.000Z	@Aquatic_Deluxe @asimo3089 Shut up and stop being an attention whore. You did not make that video.					@Aquatic	1055587808738508805
1288621906216677377	2020-07-29T23:46:18.000Z	"@realDonaldTrump You sure a good little whore for Vlad.😡

Putin appears to see the clear writing on the wall that you are toast in Nov so he is cashing in some chips by asking you to make some moves that help him and hurt our allies eh? #TrumpKnewAndDidNothing
#TrumpKnewAboutRussianBounty https://t.co/nUnc4YbBtr"					@realDonaldTrump	25073877
1288621290778222592	2020-07-29T23:43:51.000Z	"@NybergPI
Didn't you cheat on your ex wife Vivian for 10 years and didn't you cheat on her with her best friend that whore Mandira Rudra for 2 years ? Aren't you a dishonest treacherous piece of shit ?"					@NybergPI	2208177529
1288620642359603200	2020-07-29T23:41:17.000Z	@jaemiaguileraaa i cant stand these type of females  ugh now you’re just worse than you’re whore ass bf					@jaemiaguileraaa	920542628340310016
1288620282043863041	2020-07-29T23:39:51.000Z	#ERROR!						1288534341690195969
1288620101227491328	2020-07-29T23:39:08.000Z	@Based_Whore yea but  hugging is something you can do with a stranger or to show support and with family etc .. butts are for smacking and sexual stuff X3					@Based	1193285241638703106
1288619308944244737	2020-07-29T23:35:59.000Z	@holiest_whore Um I'm from hoyle heights its been happening to us in Boyle heights   and we do t have a stadium raising our property value up you're preaching to the wrong person....were getting g displaces in Boyle heights for nothing..					@holiest	1059123217070120960
1288619208029302784	2020-07-29T23:35:35.000Z	@realDonaldTrump And you're just a Trojan Whore for corruption incompetency and capitulation to America's enemies. (I do not mean to use 'whore' to discredit sex workers. Only to correctly this wretched greedy game show host turned wannabe dictator).					@realDonaldTrump	25073877
1288618189308346368	2020-07-29T23:31:32.000Z	@BigBertieT @realDonaldTrump You can tell that's fake: Dumbass* is thin &amp; the First Whore has her clothes on. 🤣🤣🤣🤣🤣 https://t.co/ckEXfcPjJi					@BigBertieT	313935105
1288617970822983680	2020-07-29T23:30:40.000Z	@CHICOS_CABRONES My goodness. I dont even feel sorry for that bottom guy. That's what you get for being a whore 😈					@CHICOS	1214248215597371392
1288617963134705664	2020-07-29T23:30:38.000Z	@breanaharrell @ashxx88 you annoying whore	Y	Y	Y	@breanaharrell	@breanaharrell	196838922
1288617794305761281	2020-07-29T23:29:58.000Z	@virtuousdeath AYMERIC ARE YOU BEING. A WHORE?					@virtuousdeath	1171947486971387905
1288617609424928769	2020-07-29T23:29:14.000Z	@MatchMyFIy @maikodiamond I hope you get suspended whore					@MatchMyFIy	1281665461130854403
1288617485709828143	2020-07-29T23:28:44.000Z	@avgeI “White mans whore??!!” Someone is really taking black womens pictures and attaching stuff like that 🤮I hope you’re ok please report if you can					@avgeI	1136618925477814272
1288617343996825600	2020-07-29T23:28:10.000Z	@kazwell_ Jude you left me. If this is how it must be than this how it will be. Rina may be a whore But she is a whore with good timing she scooped me up while you weren't there. Jude I have no hatred for you. I don't know why you divorced me but I am here 🤹🏻‍♂️					@kazwell	1032422180716523520
1288617214384304129	2020-07-29T23:27:39.000Z	@FuckinPrompts I like "though" to replace "nor." But dammit you better tell me WHO is the biggest whore the congregation has ever seen or I'm going to be mad at this sentence anyway.					@FuckinPrompts	3418484187
1288617087875809286	2020-07-29T23:27:09.000Z	@KamalaHarris Chy-na you old whore					@KamalaHarris	30354991
1288616983039180800	2020-07-29T23:26:44.000Z	@R_Flan @HollyBear92 @jaeceeare @hilldare You need to cuss out the girl that greets people. She let a whore man come in without a mask I came in right behind him and she told me I had to have it. I fussed					@R	35484409
1288616836045709317	2020-07-29T23:26:09.000Z	@smackey242 Lmaooo I always knew you was a whore.					@smackey242	1642241893
1288616505316388869	2020-07-29T23:24:50.000Z	@alexjyoung27 AYO WTF I WAS NEVER RACIST WHORE I DIDNT WANT YOU ANYWHERE NEAR ME. you just wanna see me throw it back again					@alexjyoung27	1227029547385835521
1288616340916494337	2020-07-29T23:24:11.000Z	@SAVAGENAZl &lt; my cock like the German whore you are.					@SAVAGENAZl	1190686609064247301
1288616121524989953	2020-07-29T23:23:19.000Z	@doormattsarecoo You betrayed our trust. You always called her a whore. Now she's YOUR whore?					@doormattsarecoo	1174480873506430976
1288616003241299971	2020-07-29T23:22:51.000Z	@wildelectricart Fuck.....god....the black and gold.... thank you vini. i am a whore					@wildelectricart	995362569601933313
1288615909792403456	2020-07-29T23:22:28.000Z	@LeonFot1 YOU SHUT YOUR WHORE MOUTH BEE					@LeonFot1	1225262031953178631
1288615796663554049	2020-07-29T23:22:01.000Z	@jacinapelley I dated a girl x2. Both of those women were whore bags and liars and cheaters. Glad you’re happy. It’s about the personality fr.					@jacinapelley	1712879306
1288615763566182400	2020-07-29T23:21:54.000Z	@TRCatmos and look where that got you whore now hop on minecraft with me					@TRCatmos	721046607303585792
1288615686621855744	2020-07-29T23:21:35.000Z	"you love it. no need for thinking no responsibilities and no expectations. tell me all those worshippers— who would they pray to if they knew their god had been reduced to such a brainless cheap whore?

—— 𝐁𝐋𝐎𝐎𝐃 𝐏𝐘𝐓𝐇𝐎𝐍."						1274097719095840768
1288615600684752903	2020-07-29T23:21:15.000Z	"@DonaldJTrumpJr My God your desperation is pathetic.
I’d vote for Abe Lincoln in his current state over the attention whore #DrDementia.
You might call him Dad...
But America calls him the #IdiotInChief!"					@DonaldJTrumpJr	39344374
1288615576290680832	2020-07-29T23:21:09.000Z	@CodyRayBaker @Halcyon270 @matryoskadoll The hemorrhoids that will plague you in your 50s will be me poking a hot stick up your ass from Hell Trump whore.					@CodyRayBaker	1220419950159986688
1288615290411122688	2020-07-29T23:20:01.000Z	@Bradford8872154 @MNDarkfire @Bophadess @acharizard420 @cdxliv444 @NaijaViralz Fuck off. You’re in no position to determine what a real man is. That’s not his child it’s the daughter of a whore. Why would he care what happened to it					@Bradford8872154	913846015857270784
1288615286095085570	2020-07-29T23:20:00.000Z	@Based_Whore wait what ? you showed us your butt but chu can't hug ? silly june bug					@Based	1193285241638703106
